-0.08721281 5 -69.30318 160.7584
-0.07681792 5 -71.97363 160.2279
-0.06645734 5 -74.63527 159.6992
-0.05613094 5 -77.28812 159.1721
-0.04583862 5 -79.93222 158.6469
-0.03558027 5 -82.5676 158.1234
-0.02535577 5 -85.19427 157.6015
-0.01516501 5 -87.81229 157.0815
-0.005007874 5 -90.42165 156.5631
0.005115739 5 -93.02242 156.0464
0.01520594 5 -95.61459 155.5315
0.02526285 5 -98.19822 155.0182
0.03528657 5 -100.7733 154.5067
0.04527721 5 -103.3399 153.9968
0.05523488 5 -105.898 153.4886
0.06515969 5 -108.4477 152.9821
0.07505175 5 -110.989 152.4772
0.08491117 5 -113.5219 151.9741
0.09473804 5 -116.0464 151.4725
0.1045325 5 -118.5626 150.9727
0.1142946 5 -121.0705 150.4745
0.1240245 5 -123.5701 149.9779
0.1337224 5 -126.0615 149.483
0.1433882 5 -128.5447 148.9897
0.1530221 5 -131.0196 148.498
0.1626242 5 -133.4864 148.008
0.1721946 5 -135.9451 147.5195
0.1817334 5 -138.3956 147.0327
0.1912408 5 -140.838 146.5475
0.2007168 5 -143.2724 146.0639
0.2101615 5 -145.6988 145.5819
0.219575 5 -148.1171 145.1015
0.2289575 5 -150.5275 144.6226
0.2383522 5 -152.941 144.8098
0.2477589 5 -155.3576 144.9964
0.2571777 5 -157.7773 145.1824
0.2666085 5 -160.2 145.3678
0.2760513 5 -162.6259 145.5525
0.2855061 5 -165.0548 145.7367
0.2949728 5 -167.4868 145.9202
0.3044513 5 -169.9219 146.1032
0.3139417 5 -172.3599 146.2855
0.3234438 5 -174.801 146.4672
0.3329577 5 -177.2452 146.6484
0.3424834 5 -179.6923 146.8289
0.3520207 5 -182.1424 147.0088
0.3615696 5 -184.5956 147.1882
0.3711301 5 -187.0517 147.3669
0.3807022 5 -189.5107 147.5451
0.3902858 5 -191.9728 147.7226
0.3998809 5 -194.4377 147.8996
0.4094874 5 -196.9057 148.076
0.4191054 5 -199.3765 148.2519
0.4287347 5 -201.8503 148.4271
0.4383753 5 -204.327 148.6018
0.4480272 5 -206.8066 148.7759
0.4576904 5 -209.289 148.9494
0.4673648 5 -211.7744 149.1223
0.4770504 5 -214.2626 149.2947
0.4867471 5 -216.7537 149.4665
0.496455 5 -219.2477 149.6377
0.5061738 5 -221.7445 149.8084
0.5159038 5 -224.2441 149.9785
0.5256447 5 -226.7466 150.148
0.5353966 5 -229.2518 150.317
0.5451595 5 -231.7599 150.4854
0.5549332 5 -234.2708 150.6533
0.5647178 5 -236.7844 150.8206
0.5745132 5 -239.3009 150.9874
0.5843194 5 -241.8201 151.1536
0.5941364 5 -244.3421 151.3193
0.603964 5 -246.8668 151.4844
0.6138024 5 -249.3942 151.6489
0.6236082 5 -251.9134 151.1485
0.6333817 5 -254.4242 150.6497
0.643123 5 -256.9267 150.1526
0.6528321 5 -259.421 149.6571
0.6625091 5 -261.907 149.1632
0.6721542 5 -264.3849 148.671
0.6817675 5 -266.8546 148.1803
0.6913491 5 -269.3161 147.6913
0.7008991 5 -271.7695 147.204
0.7104175 5 -274.2148 146.7182
0.7199476 5 -276.6631 146.8985
0.7294894 5 -279.1143 147.0782
0.7390429 5 -281.5686 147.2573
0.7486079 5 -284.0259 147.4358
0.7581844 5 -286.4861 147.6138
0.7677725 5 -288.9492 147.7911
0.777372 5 -291.4154 147.9679
0.786983 5 -293.8844 148.144
0.7966053 5 -296.3564 148.3196
0.8062389 5 -298.8313 148.4947
0.8158839 5 -301.3091 148.6691
0.8255402 5 -303.7898 148.843
0.8352078 5 -306.2734 149.0163
0.8448865 5 -308.7599 149.189
0.8545764 5 -311.2492 149.3611
0.8642774 5 -313.7414 149.5327
0.8739895 5 -316.2365 149.7037
0.8837127 5 -318.7344 149.8742
0.8934469 5 -321.2351 150.0441
0.9031921 5 -323.7386 150.2134
0.9129483 5 -326.245 150.3822
0.9227153 5 -328.7542 150.5504
0.9324932 5 -331.2661 150.718
0.942282 5 -333.7809 150.8851
0.9520384 5 -336.2873 150.3872
0.9617627 5 -338.7855 149.8909
0.9714549 5 -341.2754 149.3963
0.981115 5 -343.7571 148.9033
0.9907433 5 -346.2306 148.4119
1.00034 5 -348.696 147.9221
1.009905 5 -351.1532 147.434
1.019438 5 -353.6023 146.9474
1.028983 5 -356.0544 147.127
1.03854 5 -358.5095 147.306
1.048108 5 -360.9676 147.4843
1.057687 5 -363.4286 147.6621
1.067279 5 -365.8926 147.8393
1.076881 5 -368.3595 148.0159
1.086495 5 -370.8293 148.1919
1.096121 5 -373.3021 148.3674
1.105757 5 -375.7778 148.5422
1.115405 5 -378.2564 148.7165
1.125065 5 -380.7379 148.8902
1.134735 5 -383.2223 149.0634
1.144417 5 -385.7095 149.2359
1.15411 5 -388.1996 149.4079
1.163814 5 -390.6926 149.5793
1.173529 5 -393.1884 149.7502
1.183256 5 -395.6871 149.9205
1.19295 5 -398.1775 149.4258
1.202612 5 -400.6597 148.9327
1.212242 5 -403.1337 148.4412
1.221841 5 -405.5995 147.9513
1.231407 5 -408.0573 147.4631
1.240942 5 -410.5068 146.9765
1.250446 5 -412.9483 146.4915
1.259919 5 -415.3818 146.008
1.26936 5 -417.8072 145.5262
1.27877 5 -420.2246 145.046
1.288149 5 -422.6341 144.5673
1.297496 5 -425.0356 144.0902
1.306857 5 -427.4402 144.2792
1.316229 5 -429.848 144.4676
1.325614 5 -432.2589 144.6553
1.335011 5 -434.6729 144.8424
1.344419 5 -437.0901 145.0289
1.35384 5 -439.5103 145.2148
1.363273 5 -441.9336 145.4
1.372718 5 -444.36 145.5847
1.382175 5 -446.7895 145.7687
1.391644 5 -449.222 145.9522
1.401124 5 -451.6576 146.135
1.410617 5 -454.0962 146.3172
1.420121 5 -456.5378 146.4988
1.429637 5 -458.9824 146.6799
1.439165 5 -461.4301 146.8603
1.448704 5 -463.8807 147.0401
1.458255 5 -466.3344 147.2194
1.467817 5 -468.791 147.398
1.477391 5 -471.2506 147.5761
1.486934 5 -473.7021 147.0891
1.496445 5 -476.1455 146.6037
1.505925 5 -478.5808 146.1199
1.515373 5 -481.0081 145.6377
1.524833 5 -483.4384 145.8216
1.534305 5 -485.8719 146.0048
1.543789 5 -488.3083 146.1875
1.553285 5 -490.7478 146.3696
1.562793 5 -493.1903 146.551
1.572312 5 -495.6358 146.7319
1.581843 5 -498.0843 146.9121
1.591386 5 -500.5358 147.0918
1.60094 5 -502.9903 147.2708
1.610506 5 -505.4478 147.4493
1.620083 5 -507.9083 147.6272
1.629672 5 -510.3717 147.8045
1.639273 5 -512.838 147.9812
1.648884 5 -515.3073 148.1573
1.658508 5 -517.7795 148.3329
1.668142 5 -520.2546 148.5079
1.677788 5 -522.7327 148.6823
1.687445 5 -525.2136 148.8561
1.69707 5 -527.6863 148.3649
1.706664 5 -530.1509 147.8752
1.716226 5 -532.6073 147.3873
1.725756 5 -535.0557 146.9009
1.735255 5 -537.4959 146.4161
1.744722 5 -539.9281 145.9329
1.754159 5 -542.3523 145.4514
1.763607 5 -544.7795 145.6358
1.773067 5 -547.2098 145.8197
1.782539 5 -549.6432 146.003
1.792023 5 -552.0796 146.1856
1.801519 5 -554.519 146.3677
1.811026 5 -556.9615 146.5491
1.820545 5 -559.407 146.73
1.830076 5 -561.8555 146.9103
1.839619 5 -564.3069 147.09
1.849173 5 -566.7614 147.269
1.858739 5 -569.2189 147.4475
1.868316 5 -571.6793 147.6254
1.877905 5 -574.1426 147.8027
1.887505 5 -576.6089 147.9794
1.897117 5 -579.0782 148.1556
1.90674 5 -581.5504 148.3311
1.916374 5 -584.0255 148.5061
1.92602 5 -586.5034 148.6805
1.935677 5 -588.9843 148.8543
1.945302 5 -591.457 148.3631
1.954895 5 -593.9216 147.8735
1.964457 5 -596.378 147.3855
1.973987 5 -598.8263 146.8992
1.983486 5 -601.2665 146.4144
1.992997 5 -603.7098 146.5957
2.002519 5 -606.1561 146.7764
2.012053 5 -608.6053 146.9565
2.021598 5 -611.0576 147.136
2.031156 5 -613.5129 147.315
2.040724 5 -615.9711 147.4933
2.050304 5 -618.4323 147.6711
2.059896 5 -620.8964 147.8482
2.069499 5 -623.3634 148.0248
2.079114 5 -625.8334 148.2008
2.08874 5 -628.3063 148.3762
2.098377 5 -630.7821 148.551
2.108026 5 -633.2609 148.7253
2.117686 5 -635.7425 148.899
2.127357 5 -638.227 149.0721
2.13704 5 -640.7144 149.2446
2.146733 5 -643.2046 149.4166
2.156438 5 -645.6977 149.588
2.166153 5 -648.1937 149.7588
2.17588 5 -650.6924 149.9291
2.185618 5 -653.1941 150.0988
2.195367 5 -655.6985 150.2679
2.205126 5 -658.2058 150.4365
2.214897 5 -660.7159 150.6046
2.224678 5 -663.2288 150.772
2.234471 5 -665.7444 150.939
2.244274 5 -668.2628 151.1053
2.254087 5 -670.784 151.2711
2.263577 5.646544 -673.3079 151.4364
2.273077 6.322828 -675.8346 151.6012
2.282546 6.999848 -678.3529 151.1009
2.291984 7.674627 -680.8629 150.6022
2.30139 8.347182 -683.3647 150.1053
2.310765 9.017529 -685.8582 149.6099
2.320151 9.685653 -688.3545 149.7807
2.329548 10.35454 -690.8536 149.9509
2.338955 11.02419 -693.3557 150.1205
2.348373 11.6946 -695.8605 150.2896
2.357802 12.36577 -698.3681 150.4581
2.367241 13.03768 -700.8785 150.626
2.37669 13.71035 -703.3917 150.7934
2.38615 14.38376 -705.9077 150.9603
2.395621 15.05792 -708.4265 151.1266
2.405102 15.73281 -710.948 151.2924
2.414593 16.40845 -713.4723 151.4576
2.424094 17.08484 -715.9993 151.6222
2.433606 17.76196 -718.5291 151.7863
2.443128 18.43981 -721.0616 151.9499
2.45266 19.11838 -723.5968 152.113
2.462203 19.79769 -726.1347 152.2755
2.471713 20.47772 -728.6642 151.773
2.481193 21.15551 -731.1854 151.2721
2.490641 21.83106 -733.6983 150.7729
2.500058 22.50438 -736.2029 150.2754
2.509444 23.17548 -738.6992 149.7795
2.518799 23.84437 -741.1873 149.2852
2.528165 24.51106 -743.6783 149.457
2.537541 25.17851 -746.1721 149.6283
2.546929 25.84672 -748.6687 149.799
2.556326 26.51569 -751.1682 149.9691
2.565735 27.18542 -753.6705 150.1387
2.575154 27.86304 -756.1756 150.3077
2.584584 28.53428 -758.6835 150.4762
2.594024 29.20628 -761.1943 150.6441
2.603474 29.87903 -763.7078 150.8114
2.612936 30.55252 -766.2241 150.9782
2.622407 31.22676 -768.7431 151.1445
2.631889 31.90173 -771.265 151.3102
2.641381 32.57747 -773.7896 151.4753
2.650883 33.25393 -776.3169 151.6399
2.660396 33.93113 -778.8469 151.804
2.669919 34.60905 -781.3797 151.9675
2.679411 35.2877 -783.9041 151.466
2.688871 35.96412 -786.4202 150.9661
2.6983 36.63831 -788.928 150.468
2.707698 37.31027 -791.4276 149.9714
2.717065 37.98001 -793.9188 149.4765
2.726401 38.64755 -796.4019 148.9832
2.735707 39.31288 -798.8767 148.4916
2.745023 39.97601 -801.3545 148.666
2.75435 40.63993 -803.8351 148.8399
2.763688 41.30462 -806.3187 149.0132
2.773036 41.97008 -808.8051 149.1859
2.782396 42.6363 -811.2944 149.3581
2.791766 43.30331 -813.7865 149.5297
2.801147 43.97108 -816.2815 149.7007
2.810539 44.63961 -818.7794 149.8712
2.819942 45.30891 -821.28 150.0411
2.829355 45.97896 -823.7835 150.2104
2.838778 46.64977 -826.2898 150.3792
2.848212 47.32133 -828.7989 150.5474
2.857656 47.99364 -831.3108 150.7151
2.867111 48.6667 -833.8255 150.8822
2.876577 49.34051 -836.343 151.0487
2.886053 50.01674 -838.8632 151.2148
2.895539 50.69203 -841.3862 151.3802
2.904994 51.36807 -843.9008 150.8807
2.914418 52.04187 -846.4072 150.3828
2.92381 52.71344 -848.9053 149.8865
2.933172 53.3828 -851.3951 149.3919
2.942503 54.04996 -853.8768 148.8989
2.951803 54.71491 -856.3502 148.4075
2.961114 55.37767 -858.8266 148.5822
2.970436 56.04122 -861.3058 148.7564
2.979769 56.70553 -863.788 148.9299
2.989112 57.37063 -866.2731 149.103
2.998466 58.03649 -868.761 149.2754
3.007832 58.70313 -871.2518 149.4473
3.017207 59.37053 -873.7454 149.6185
3.026594 60.0387 -876.2419 149.7893
3.035991 60.70763 -878.7412 149.9594
3.045399 61.37732 -881.2433 150.129
3.054817 62.04777 -883.7483 150.2981
3.064246 62.71896 -886.256 150.4666
3.073686 63.39091 -888.7666 150.6345
3.083136 64.06361 -891.28 150.8019
3.092596 64.73707 -893.7961 150.9687
3.102067 65.41126 -896.315 151.135
3.063007 66.08613 -898.8253 150.6362
2.975752 66.75845 -901.3261 150.1391
2.840655 67.42795 -903.8165 149.6437
2.658087 68.09444 -906.2957 149.1499
2.428435 68.75765 -908.7626 148.6577
2.198515 69.41868 -911.2325 148.8316
1.968327 70.08047 -913.7052 149.0049
1.737872 70.74303 -916.1808 149.1777
1.50715 71.40636 -918.6592 149.3499
1.276164 72.07045 -921.1406 149.5215
1.044914 72.75648 -923.6247 149.6925
0.8133998 73.42209 -926.1116 149.863
0.5816234 74.08846 -928.6014 150.0329
0.3495854 74.7556 -931.0941 150.2023
0.1172867 75.42349 -933.5895 150.3711
-0.115272 76.09214 -936.0876 150.5393
-0.3480898 76.76151 -938.5886 150.707
-0.5811657 77.43165 -941.0923 150.8742
-0.814499 78.10251 -943.5989 151.0408
-1.048089 78.77413 -946.1082 151.2068
-1.281934 79.44649 -948.6202 151.3723
-1.515008 80.1196 -951.1239 150.8728
-1.747313 80.79047 -953.6194 150.3749
-1.978851 81.45914 -956.1066 149.8786
-2.209625 82.12562 -958.5856 149.384
-2.439637 82.78987 -961.0565 148.8911
-2.66889 83.45193 -963.5192 148.3997
-2.897387 84.11182 -965.9737 147.91
-3.12513 84.76952 -968.4202 147.4219
-3.352121 85.42506 -970.8585 146.9354
-3.578363 86.07842 -973.2889 146.4505
-3.803859 86.72964 -975.7112 145.9673
-4.02861 87.37871 -978.1255 145.4856
-4.25262 88.02563 -980.5319 145.0055
-4.475891 88.67043 -982.9303 144.5269
-4.698424 89.3131 -985.3208 144.05
-4.920224 89.95364 -987.7034 143.5746
-5.141291 90.59206 -990.0782 143.1008
-5.361629 91.22839 -992.4451 142.6286
-5.58124 91.86261 -994.8042 142.1579
-5.800126 92.49474 -997.1555 141.6888
-6.01829 93.12479 -999.4991 141.2212
-6.235734 93.75275 -1001.835 140.7552
-6.45246 94.37864 -1004.163 140.2907
-6.676091 94.6 -1006.483 139.8277
-6.898984 94.6 -1008.795 139.3663
-7.121141 94.6 -1011.099 138.9064
-7.342566 94.6 -1013.396 138.448
-7.56326 94.6 -1015.685 137.9911
-7.783225 94.6 -1017.967 137.5358
-8.002464 94.6 -1020.241 137.0819
-8.220981 94.6 -1022.508 136.6295
-8.438776 94.6 -1024.767 136.1786
-8.655852 94.6 -1027.019 135.7292
-8.872212 94.6 -1029.263 135.2813
-9.087858 94.6 -1031.5 134.8349
-9.302793 94.6 -1033.729 134.39
-9.517017 94.6 -1035.952 133.9465
-9.730536 94.6 -1038.166 133.5045
-9.943349 94.6 -1040.374 133.0639
-10.15546 94.6 -1042.574 132.6248
-10.36687 94.6 -1044.767 132.1871
-10.57759 94.6 -1046.953 131.7509
-10.7876 94.6 -1049.131 131.3161
-10.99693 94.6 -1051.302 130.8828
-11.20556 94.6 -1053.467 130.4508
-11.41351 94.6 -1055.624 130.0204
-11.62077 94.6 -1057.774 129.5913
-11.82734 94.6 -1059.916 129.1636
-12.03324 94.6 -1062.052 128.7374
-12.23845 94.6 -1064.181 128.3126
-12.44299 94.6 -1066.302 127.8891
-12.64685 94.6 -1068.417 127.4671
-12.85004 94.6 -1070.525 127.0465
-13.05256 94.6 -1072.625 126.6272
-13.25441 94.6 -1074.719 126.2093
-13.4556 94.6 -1076.806 125.7928
-13.65612 94.6 -1078.886 125.3777
-13.81532 94.6 -1080.974 125.6285
-13.93297 94.6 -1083.069 125.8784
-14.00885 94.6 -1085.169 126.1274
-14.04278 94.6 -1087.275 126.3757
-14.03456 94.6 -1089.386 126.6231
-13.98405 94.6 -1091.5 126.8697
-13.93343 94.6 -1093.618 127.1155
-13.88272 94.6 -1095.74 127.3605
-13.83191 94.6 -1097.866 127.6047
-13.78101 94.6 -1099.996 127.8481
-13.73001 94.6 -1102.13 128.0906
-13.67891 94.6 -1104.269 128.3324
-13.62771 94.6 -1106.411 128.5734
-13.57642 94.6 -1108.557 128.8136
-13.5253 94.6 -1110.696 128.3885
-13.47435 94.6 -1112.828 127.9648
-13.42357 94.6 -1114.954 127.5425
-13.37295 94.6 -1117.072 127.1216
-13.3225 94.6 -1119.183 126.7021
-13.27222 94.6 -1121.287 126.284
-13.2221 94.6 -1123.384 125.8673
-13.17215 94.6 -1125.474 125.4519
-13.12236 94.6 -1127.558 125.0379
-13.07274 94.6 -1129.634 124.6253
-12.9819 94.6 -1131.703 124.214
-12.85015 94.6 -1133.762 123.8041
-12.67782 94.6 -1135.811 123.3956
-12.46525 94.6 -1137.85 122.9884
-12.21277 94.6 -1139.877 122.5825
-11.92077 94.6 -1141.892 122.178
-11.58963 94.6 -1143.895 121.7748
-11.21972 94.6 -1145.884 121.3729
-10.81148 94.6 -1147.858 120.9724
-10.3653 94.6 -1149.818 120.5732
-9.881628 94.6 -1151.761 120.1753
-9.358019 94.6 -1153.699 120.4432
-8.794512 94.6 -1155.63 120.7102
-8.191167 94.6 -1157.554 120.9763
-7.54806 94.6 -1159.47 121.2416
-6.865287 94.6 -1161.376 121.506
-6.142959 94.6 -1163.273 121.7695
-5.381206 94.6 -1165.159 122.0321
-4.580177 94.6 -1167.033 122.2939
-3.740037 94.6 -1168.895 122.5548
-2.86097 94.6 -1170.743 122.8148
-1.943178 94.6 -1172.578 123.074
-0.9868796 94.6 -1174.397 123.3323
0.007688165 94.6 -1176.201 123.5898
1.040271 94.6 -1177.988 123.8464
2.110595 94.6 -1179.758 124.1022
3.218373 94.6 -1181.51 124.3571
4.363297 94.6 -1183.243 124.6112
5.545041 94.6 -1184.956 124.8645
6.756795 94.6 -1186.639 124.4524
7.997864 94.6 -1188.293 124.0417
9.267548 94.6 -1189.916 123.6324
10.56514 94.6 -1191.508 123.2244
11.88991 94.6 -1193.068 122.8178
13.24116 94.6 -1194.597 122.4125
14.61815 94.6 -1196.093 122.0085
16.02014 94.6 -1197.557 121.6059
17.45423 94.6 -1198.995 121.8691
18.91994 94.6 -1200.407 122.1314
20.4168 94.6 -1201.793 122.3928
21.94432 94.6 -1203.152 122.6534
23.50199 94.6 -1204.482 122.9131
25.0893 94.6 -1205.784 123.172
26.70571 94.6 -1207.056 123.43
28.35065 94.6 -1208.299 123.6871
30.02358 94.6 -1209.511 123.9434
31.72391 94.6 -1210.691 124.1989
33.45103 94.6 -1211.84 124.4535
35.20436 94.6 -1212.956 124.7073
36.98325 94.6 -1214.039 124.9602
38.78709 94.6 -1215.089 125.2123
40.6152 94.6 -1216.104 125.4636
42.46695 94.6 -1217.084 125.714
44.34164 94.6 -1218.029 125.9636
46.2386 94.6 -1218.938 126.2124
48.15712 94.6 -1219.811 126.4604
50.08632 94.6 -1220.642 126.0431
52.02534 94.6 -1221.432 125.6271
53.97332 94.6 -1222.181 125.2126
55.92941 94.6 -1222.888 124.7994
57.87905 94.6 -1223.593 124.3875
59.82225 94.6 -1224.295 123.9771
61.75903 94.6 -1224.996 123.5679
63.68943 94.6 -1225.693 123.1602
65.61346 94.6 -1226.389 122.7537
67.53114 94.6 -1227.082 122.3486
69.44248 94.6 -1227.773 121.9449
71.34753 94.6 -1228.462 121.5425
73.24628 94.6 -1229.148 121.1414
75.13877 94.6 -1229.833 120.7416
77.02502 94.6 -1230.515 120.3432
78.91545 94.6 -1231.198 120.6105
80.81006 94.6 -1231.883 120.877
82.70883 94.6 -1232.569 121.1426
84.61176 94.6 -1233.257 121.4073
86.51881 94.6 -1233.947 121.6711
88.42999 94.6 -1234.638 121.934
90.34528 94.6 -1235.33 122.1961
92.26466 94.6 -1236.024 122.4574
94.18812 94.6 -1236.719 122.7177
96.10133 94.6 -1237.454 122.9772
98.00344 94.6 -1238.229 123.2359
99.89362 94.6 -1239.044 123.4937
101.771 94.6 -1239.898 123.7506
103.6348 94.6 -1240.791 124.0067
105.4842 94.6 -1241.724 124.2619
107.3183 94.6 -1242.694 124.5163
109.1363 94.6 -1243.704 124.7699
110.9374 94.6 -1244.752 125.0227
112.7208 94.6 -1245.838 125.2746
114.4856 94.6 -1246.961 125.5256
116.2311 94.6 -1248.122 125.7759
117.98 94.6 -1249.285 126.0253
119.7324 94.6 -1250.451 126.2739
121.4883 94.6 -1251.619 126.5216
123.2475 94.6 -1252.789 126.7686
125.0102 94.6 -1253.961 127.0147
126.7763 94.6 -1255.135 127.26
128.5457 94.6 -1256.312 127.5045
130.3186 94.6 -1257.491 127.7482
132.0948 94.6 -1258.673 127.9911
133.8744 94.6 -1259.856 128.2332
135.6573 94.6 -1261.042 128.4745
137.4436 94.6 -1262.23 128.715
139.2332 94.6 -1263.42 128.9548
141.0261 94.6 -1264.613 129.1937
142.8223 94.6 -1265.807 129.4318
144.6218 94.6 -1267.004 129.6692
146.4246 94.6 -1268.203 129.9057
148.2307 94.6 -1269.404 130.1415
150.04 94.6 -1270.608 130.3765
151.8526 94.6 -1271.813 130.6107
153.6684 94.6 -1273.021 130.8442
155.4874 94.6 -1274.23 131.0769
157.3097 94.6 -1275.442 131.3088
159.1352 94.6 -1276.656 131.5399
160.9639 94.6 -1277.873 131.7703
162.7957 94.6 -1279.091 132
164.6308 94.6 -1280.312 132.2288
166.4689 94.6 -1281.534 132.4569
168.3103 94.6 -1282.759 132.6843
170.1548 94.6 -1283.985 132.9109
172.0024 94.6 -1285.214 133.1368
173.8532 94.6 -1286.445 133.3619
175.707 94.6 -1287.678 133.5863
177.5883 94.6 -1288.876 133.8099
179.4964 94.6 -1290.037 134.0328
181.4305 94.6 -1291.163 134.255
183.3899 94.6 -1292.251 134.4764
185.374 94.6 -1293.301 134.6971
187.382 94.6 -1294.313 134.9171
189.413 94.6 -1295.287 135.1363
191.4665 94.6 -1296.221 135.3548
193.5415 94.6 -1297.115 135.5726
195.6374 94.6 -1297.969 135.7897
197.7533 94.6 -1298.782 136.0061
199.8885 94.6 -1299.554 136.2218
202.0269 94.6 -1300.327 136.4367
204.1688 94.6 -1301.101 136.6509
206.314 94.6 -1301.877 136.8644
208.4625 94.6 -1302.654 137.0773
210.6144 94.6 -1303.432 137.2894
212.7695 94.6 -1304.211 137.5008
214.928 94.6 -1304.991 137.7115
217.0898 94.6 -1305.772 137.9215
219.2548 94.6 -1306.555 138.1309
221.4231 94.6 -1307.339 138.3395
223.5947 94.6 -1308.124 138.5474
225.7695 94.6 -1308.91 138.7547
227.9476 94.6 -1309.698 138.9613
230.1289 94.6 -1310.486 139.1672
232.3134 94.6 -1311.276 139.3724
234.5011 94.6 -1312.067 139.577
236.692 94.6 -1312.859 139.7808
238.8861 94.6 -1313.652 139.984
241.0834 94.6 -1314.447 140.1866
243.2838 94.6 -1315.242 140.3884
245.4874 94.6 -1316.039 140.5896
247.6941 94.6 -1316.837 140.7901
249.9039 94.6 -1317.636 140.99
252.1169 94.6 -1318.436 141.1892
254.333 94.6 -1319.237 141.3877
256.5522 94.6 -1320.039 141.5856
258.7745 94.6 -1320.842 141.7829
260.9999 94.6 -1321.647 141.9795
263.2283 94.6 -1322.453 142.1754
265.4598 94.6 -1323.259 142.3707
267.6944 94.6 -1324.067 142.5653
269.9319 94.6 -1324.876 142.7593
272.1726 94.6 -1325.686 142.9527
274.4162 94.6 -1326.497 143.1454
276.6629 94.6 -1327.31 143.3375
278.9125 94.6 -1328.123 143.529
281.1652 94.6 -1328.937 143.7198
283.4208 94.6 -1329.753 143.91
285.6794 94.6 -1330.569 144.0996
287.941 94.6 -1331.387 144.2885
290.2055 94.6 -1332.206 144.4769
292.473 94.6 -1333.025 144.6646
294.7433 94.6 -1333.846 144.8516
297.0167 94.6 -1334.668 145.0381
299.2929 94.6 -1335.491 145.2239
301.572 94.6 -1336.315 145.4092
303.854 94.6 -1337.14 145.5938
306.1389 94.6 -1337.966 145.7778
308.4267 94.6 -1338.793 145.9612
310.7334 94.6 -1339.575 146.144
313.0583 94.6 -1340.312 146.3262
315.4002 94.6 -1341.003 146.5078
317.7585 94.6 -1341.648 146.6888
320.1321 94.6 -1342.246 146.8692
322.5201 94.6 -1342.797 147.049
324.9215 94.6 -1343.301 147.2282
327.3355 94.6 -1343.758 147.4068
329.7611 94.6 -1344.167 147.5849
332.1973 94.6 -1344.527 147.7623
334.6364 94.6 -1344.888 147.9391
337.0784 94.6 -1345.249 148.1154
339.5233 94.6 -1345.611 148.2911
341.9711 94.6 -1345.973 148.4662
344.4218 94.6 -1346.336 148.6407
346.8753 94.6 -1346.699 148.8147
349.3317 94.6 -1347.063 148.9881
351.7909 94.6 -1347.427 149.1609
354.253 94.6 -1347.791 149.3331
356.7179 94.6 -1348.156 149.5048
359.1856 94.6 -1348.521 149.6759
361.6562 94.6 -1348.886 149.8465
364.1295 94.6 -1349.252 150.0164
366.6057 94.6 -1349.619 150.1859
369.0846 94.6 -1349.985 150.3547
371.5663 94.6 -1350.353 150.523
374.0508 94.6 -1350.72 150.6908
376.538 94.6 -1351.088 150.858
379.0279 94.6 -1351.457 151.0246
381.5206 94.6 -1351.826 151.1907
384.0082 94.6 -1352.245 151.3562
386.4896 94.6 -1352.714 151.5212
388.9637 94.6 -1353.233 151.6857
391.4297 94.6 -1353.802 151.8496
393.8864 94.6 -1354.422 152.013
396.3329 94.6 -1355.091 152.1758
398.7681 94.6 -1355.809 152.3381
401.191 94.6 -1356.577 152.4998
403.6165 94.6 -1357.346 152.6611
406.0445 94.6 -1358.115 152.8217
408.4751 94.6 -1358.885 152.9819
410.9082 94.6 -1359.657 153.1415
413.3438 94.6 -1360.428 153.3006
415.7714 94.6 -1361.198 152.7948
418.191 94.6 -1361.965 152.2905
420.6026 94.6 -1362.729 151.788
423.0062 94.6 -1363.491 151.2871
425.4019 94.6 -1364.25 150.7878
427.7897 94.6 -1365.007 150.2902
430.1696 94.6 -1365.761 149.7943
432.5417 94.6 -1366.513 149.2999
434.9059 94.6 -1367.262 148.8072
437.2624 94.6 -1368.009 148.3162
439.611 94.6 -1368.753 147.8267
441.9519 94.6 -1369.495 147.3389
444.2851 94.6 -1370.234 146.8527
446.6106 94.6 -1370.971 146.3681
448.9284 94.6 -1371.706 145.8851
451.2491 94.6 -1372.441 146.0681
453.5728 94.6 -1373.178 146.2505
455.8993 94.6 -1373.915 146.4324
458.2134 94.6 -1374.7 146.6136
460.5143 94.6 -1375.531 146.7943
462.8008 94.6 -1376.41 146.9743
465.0721 94.6 -1377.336 147.1538
467.3271 94.6 -1378.307 147.3327
469.565 94.6 -1379.325 147.5109
471.7847 94.6 -1380.389 147.6886
473.9854 94.6 -1381.498 147.8657
476.166 94.6 -1382.653 148.0422
478.3257 94.6 -1383.852 148.2182
480.4635 94.6 -1385.096 148.3935
482.5784 94.6 -1386.383 148.5683
484.6697 94.6 -1387.715 148.7425
486.7634 94.6 -1389.048 148.9161
488.8595 94.6 -1390.382 149.0891
490.958 94.6 -1391.718 149.2616
493.059 94.6 -1393.055 149.4335
495.1624 94.6 -1394.394 149.6049
497.2681 94.6 -1395.735 149.7756
499.3763 94.6 -1397.077 149.9458
501.4868 94.6 -1398.421 150.1155
503.5998 94.6 -1399.766 150.2846
505.7151 94.6 -1401.112 150.4531
507.8327 94.6 -1402.46 150.6211
509.9527 94.6 -1403.81 150.7885
512.0751 94.6 -1405.161 150.9554
514.1998 94.6 -1406.514 151.1217
516.3268 94.6 -1407.868 151.2875
518.4561 94.6 -1409.223 151.4527
520.5878 94.6 -1410.58 151.6174
522.7217 94.6 -1411.939 151.7815
524.858 94.6 -1413.299 151.9451
526.9966 94.6 -1414.66 152.1082
529.1375 94.6 -1416.023 152.2707
531.2806 94.6 -1417.388 152.4327
533.4529 94.6 -1418.71 152.5941
535.6535 94.6 -1419.991 152.755
537.8816 94.6 -1421.228 152.9154
540.1364 94.6 -1422.422 153.0752
542.4169 94.6 -1423.571 153.2346
544.7224 94.6 -1424.676 153.3934
547.0303 94.6 -1425.782 153.5516
549.3405 94.6 -1426.889 153.7094
551.6531 94.6 -1427.998 153.8666
553.9681 94.6 -1429.107 154.0233
556.2854 94.6 -1430.218 154.1795
558.605 94.6 -1431.329 154.3352
560.927 94.6 -1432.442 154.4904
563.2513 94.6 -1433.556 154.645
565.5779 94.6 -1434.671 154.7991
567.9068 94.6 -1435.787 154.9528
570.238 94.6 -1436.904 155.1059
572.5715 94.6 -1438.022 155.2585
574.9073 94.6 -1439.142 155.4106
577.2454 94.6 -1440.262 155.5623
579.5858 94.6 -1441.384 155.7134
581.9283 94.6 -1442.507 155.864
584.2732 94.6 -1443.63 156.0141
586.6203 94.6 -1444.755 156.1637
588.9697 94.6 -1445.881 156.3129
591.3213 94.6 -1447.008 156.4615
593.6751 94.6 -1448.136 156.6096
596.0311 94.6 -1449.265 156.7573
598.3894 94.6 -1450.395 156.9045
600.7499 94.6 -1451.527 157.0512
603.1125 94.6 -1452.659 157.1974
605.4996 94.6 -1453.745 157.3431
607.9101 94.6 -1454.784 157.4883
610.3431 94.6 -1455.775 157.6331
612.7977 94.6 -1456.718 157.7774
615.2729 94.6 -1457.613 157.9212
617.7504 94.6 -1458.509 158.0645
620.2302 94.6 -1459.405 158.2074
622.7121 94.6 -1460.303 158.3497
625.1963 94.6 -1461.201 158.4917
627.6827 94.6 -1462.1 158.6331
630.1713 94.6 -1462.999 158.7741
632.662 94.6 -1463.9 158.9146
635.155 94.6 -1464.801 159.0547
637.6502 94.6 -1465.703 159.1943
640.1476 94.6 -1466.606 159.3334
642.6472 94.6 -1467.51 159.4721
645.1489 94.6 -1468.414 159.6103
647.6527 94.6 -1469.319 159.748
650.1588 94.6 -1470.225 159.8853
652.6669 94.6 -1471.132 160.0222
655.1772 94.6 -1472.039 160.1586
657.6897 94.6 -1472.948 160.2945
660.2043 94.6 -1473.857 160.43
662.7209 94.6 -1474.767 160.5651
665.2397 94.6 -1475.677 160.6997
667.7606 94.6 -1476.589 160.8339
670.2836 94.6 -1477.501 160.9676
672.8087 94.6 -1478.414 161.1009
675.3359 94.6 -1479.327 161.2337
677.8651 94.6 -1480.242 161.3661
680.3964 94.6 -1481.157 161.4981
682.9298 94.6 -1482.073 161.6296
685.4652 94.6 -1482.989 161.7607
688.0027 94.6 -1483.907 161.8913
690.5422 94.6 -1484.825 162.0216
693.0837 94.6 -1485.744 162.1514
695.6273 94.6 -1486.663 162.2808
698.1729 94.6 -1487.583 162.4097
700.7205 94.6 -1488.504 162.5382
703.2701 94.6 -1489.426 162.6663
705.8218 94.6 -1490.349 162.794
708.3754 94.6 -1491.272 162.9213
710.931 94.6 -1492.196 163.0481
713.4885 94.6 -1493.12 163.1745
716.0481 94.6 -1494.046 163.3005
718.6096 94.6 -1494.972 163.4261
721.1731 94.6 -1495.898 163.5513
723.7385 94.6 -1496.826 163.676
726.3059 94.6 -1497.754 163.8004
728.8752 94.6 -1498.683 163.9243
731.4465 94.6 -1499.613 164.0478
734.0197 94.6 -1500.543 164.1709
736.5948 94.6 -1501.474 164.2936
739.1719 94.6 -1502.405 164.4159
741.7508 94.6 -1503.338 164.5378
744.3317 94.6 -1504.271 164.6593
746.9144 94.6 -1505.204 164.7804
749.4991 94.6 -1506.139 164.9011
752.0856 94.6 -1507.074 165.0214
754.674 94.6 -1508.01 165.1413
757.2643 94.6 -1508.946 165.2608
759.8564 94.6 -1509.883 165.3799
762.4504 94.6 -1510.821 165.4986
765.0463 94.6 -1511.76 165.617
767.644 94.6 -1512.699 165.7349
770.2436 94.6 -1513.638 165.8525
772.845 94.6 -1514.579 165.9696
775.4482 94.6 -1515.52 166.0864
778.0532 94.6 -1516.462 166.2028
780.6601 94.6 -1517.404 166.3188
783.2687 94.6 -1518.347 166.4344
785.8792 94.6 -1519.291 166.5496
788.4915 94.6 -1520.235 166.6645
791.1056 94.6 -1521.18 166.779
793.7214 94.6 -1522.126 166.8931
796.3391 94.6 -1523.072 167.0068
798.9585 94.6 -1524.019 167.1201
801.5797 94.6 -1524.967 167.2331
804.2026 94.6 -1525.915 167.3457
806.8273 94.6 -1526.864 167.4579
809.4538 94.6 -1527.814 167.5698
812.082 94.6 -1528.764 167.6813
814.712 94.6 -1529.715 167.7924
817.3437 94.6 -1530.666 167.9032
819.9667 94.6 -1531.614 167.3491
822.5811 94.6 -1532.56 166.7969
825.1868 94.6 -1533.502 166.2464
827.7839 94.6 -1534.441 165.6978
830.3724 94.6 -1535.376 165.151
832.9525 94.6 -1536.309 164.606
835.5239 94.6 -1537.239 164.0628
838.0869 94.6 -1538.165 163.5214
840.6415 94.6 -1539.089 162.9818
843.1876 94.6 -1540.01 162.444
845.7253 94.6 -1540.927 161.9079
848.2547 94.6 -1541.841 161.3736
850.7757 94.6 -1542.753 160.841
853.2884 94.6 -1543.661 160.3103
855.7928 94.6 -1544.567 159.7813
858.2889 94.6 -1545.469 159.254
860.7769 94.6 -1546.368 158.7284
863.2565 94.6 -1547.265 158.2046
865.728 94.6 -1548.158 157.6825
868.1913 94.6 -1549.049 157.1622
870.6465 94.6 -1549.937 156.6436
873.0936 94.6 -1550.821 156.1266
875.5327 94.6 -1551.703 155.6114
877.9636 94.6 -1552.582 155.0979
880.3866 94.6 -1553.458 154.5861
882.8016 94.6 -1554.331 154.0759
885.2086 94.6 -1555.201 153.5675
887.6076 94.6 -1556.068 153.0607
889.9987 94.6 -1556.933 152.5556
892.382 94.6 -1557.794 152.0522
894.7573 94.6 -1558.653 151.5504
897.1415 94.6 -1559.462 151.0503
899.5335 94.6 -1560.22 150.5518
901.9176 94.6 -1560.975 150.055
904.2938 94.6 -1561.728 149.5598
906.6622 94.6 -1562.479 149.0663
909.0227 94.6 -1563.227 148.5744
911.3754 94.6 -1563.972 148.0841
913.7204 94.6 -1564.716 147.5954
916.0576 94.6 -1565.456 147.1083
918.3871 94.6 -1566.195 146.6229
920.709 94.6 -1566.93 146.139
923.0232 94.6 -1567.664 145.6568
925.3297 94.6 -1568.395 145.1761
927.6287 94.6 -1569.123 144.697
929.92 94.6 -1569.849 144.2195
932.2038 94.6 -1570.573 143.7436
934.48 94.6 -1571.295 143.2693
936.7488 94.6 -1572.014 142.7965
939.0206 94.6 -1572.734 142.9897
941.2954 94.6 -1573.455 143.1823
943.5733 94.6 -1574.177 143.3743
945.8542 94.6 -1574.899 143.5656
948.1382 94.6 -1575.623 143.7563
950.4252 94.6 -1576.348 143.9464
952.7153 94.6 -1577.074 144.1358
955.0083 94.6 -1577.8 144.3247
957.3043 94.6 -1578.528 144.5129
959.6033 94.6 -1579.257 144.7005
961.9053 94.6 -1579.986 144.8874
964.2102 94.6 -1580.717 145.0738
966.5181 94.6 -1581.448 145.2595
968.8289 94.6 -1582.18 145.4446
971.1426 94.6 -1582.914 145.6291
973.4592 94.6 -1583.648 145.813
975.7788 94.6 -1584.383 145.9963
978.1013 94.6 -1585.119 146.179
980.4267 94.6 -1585.856 146.3611
982.7549 94.6 -1586.594 146.5425
985.0861 94.6 -1587.333 146.7234
987.42 94.6 -1588.072 146.9037
989.7569 94.6 -1588.813 147.0834
992.0966 94.6 -1589.554 147.2625
994.4391 94.6 -1590.297 147.441
996.7845 94.6 -1591.04 147.6189
999.1327 94.6 -1591.784 147.7962
1001.484 94.6 -1592.529 147.973
1003.837 94.6 -1593.275 148.1491
1006.194 94.6 -1594.022 148.3247
1008.553 94.6 -1594.77 148.4997
1010.916 94.6 -1595.518 148.6741
1013.28 94.6 -1596.268 148.848
1015.648 94.6 -1597.018 149.0213
1018.018 94.6 -1597.769 149.194
1020.391 94.6 -1598.521 149.3661
1022.767 94.6 -1599.274 149.5377
1025.146 94.6 -1600.028 149.7087
1027.527 94.6 -1600.783 149.8791
1029.911 94.6 -1601.538 150.049
1032.298 94.6 -1602.295 150.2183
1034.687 94.6 -1603.052 150.387
1037.079 94.6 -1603.81 150.5552
1039.474 94.6 -1604.569 150.7229
1041.871 94.6 -1605.329 150.89
1044.255 94.6 -1606.137 151.0565
1046.625 94.6 -1606.994 151.2225
1048.981 94.6 -1607.899 151.3879
1051.339 94.6 -1608.805 151.5528
1053.699 94.6 -1609.712 151.7171
1056.062 94.6 -1610.62 151.881
1058.427 94.6 -1611.53 152.0442
1060.795 94.6 -1612.44 152.2069
1063.166 94.6 -1613.351 152.3691
1065.538 94.6 -1614.263 152.5308
1067.914 94.6 -1615.176 152.6919
1070.292 94.6 -1616.089 152.8525
1072.672 94.6 -1617.004 153.0125
1075.055 94.6 -1617.92 153.1721
1077.441 94.6 -1618.837 153.3311
1079.829 94.6 -1619.754 153.4895
1082.219 94.6 -1620.673 153.6475
1084.612 94.6 -1621.593 153.8049
1087.007 94.6 -1622.513 153.9619
1089.405 94.6 -1623.434 154.1183
1091.805 94.6 -1624.357 154.2742
1094.174 96.37993 -1625.248 154.4295
1096.563 97.11143 -1626.093 154.5844
1098.97 97.84322 -1626.889 154.7387
1101.396 98.57498 -1627.637 154.8926
1103.825 99.30747 -1628.387 155.0459
1106.256 100.0407 -1629.136 155.1987
1108.689 100.7746 -1629.887 155.351
1111.124 101.5093 -1630.639 155.5028
1113.562 102.2446 -1631.391 155.6541
1116.003 102.9807 -1632.143 155.8049
1118.445 103.7175 -1632.897 155.9553
1120.89 104.455 -1633.651 156.1051
1123.338 105.1932 -1634.406 156.2544
1125.787 105.9321 -1635.162 156.4032
1128.239 106.6717 -1635.918 156.5516
1130.694 107.412 -1636.676 156.6994
1133.15 108.1531 -1637.434 156.8468
1135.609 108.8948 -1638.192 156.9937
1138.071 109.6372 -1638.952 157.1401
1140.534 110.3803 -1639.712 157.286
1143 111.1241 -1640.472 157.4314
1145.458 111.8665 -1641.23 156.9119
1147.907 112.6065 -1641.986 156.3941
1150.349 113.3441 -1642.739 155.878
1152.782 114.0792 -1643.49 155.3636
1155.207 114.8119 -1644.238 154.8509
1157.625 115.5422 -1644.984 154.3399
1160.034 116.2701 -1645.727 153.8306
1162.436 116.9956 -1646.468 153.3229
1164.819 117.7167 -1647.203 152.1525
1167.183 118.4322 -1647.933 150.9859
1169.53 119.1423 -1648.657 149.8232
1171.859 119.8881 -1649.375 148.6643
1174.169 120.5872 -1650.088 147.5092
1176.461 121.2809 -1650.796 146.358
1178.736 121.9691 -1651.497 145.2105
1180.992 122.652 -1652.193 144.0669
1183.231 123.3294 -1652.884 142.927
1185.452 124.0014 -1653.569 141.7909
1187.655 124.6682 -1654.249 140.6585
1189.84 125.3295 -1654.923 139.5298
1192.008 125.9855 -1655.592 138.4049
1194.158 126.6363 -1656.255 137.2837
1196.291 127.2817 -1656.913 136.1662
1198.392 127.9225 -1657.608 135.0524
1200.462 128.5585 -1658.34 133.9422
1202.5 129.1893 -1659.107 132.8358
1204.505 129.8149 -1659.908 131.7329
1206.476 130.4349 -1660.743 130.6337
1208.415 131.0491 -1661.61 129.5382
1210.319 131.6574 -1662.508 128.4462
1212.188 132.2595 -1663.437 127.3579
1214.023 132.8553 -1664.396 126.2731
1215.833 133.4464 -1665.388 125.8564
1217.616 134.034 -1666.414 125.4411
1219.373 134.6176 -1667.471 125.0271
1221.103 135.1972 -1668.561 124.6146
1222.805 135.7725 -1669.682 124.2033
1224.479 136.3434 -1670.834 123.7935
1226.124 136.9096 -1672.015 123.3849
1227.741 137.4709 -1673.226 122.9778
1229.328 138.0272 -1674.465 122.5719
1230.884 138.5782 -1675.732 122.1674
1232.411 139.1238 -1677.026 121.7643
1233.907 139.6638 -1678.346 121.3625
1235.371 140.198 -1679.693 120.962
1236.804 140.7263 -1681.064 120.5628
1238.205 141.2484 -1682.46 120.1649
1239.574 141.7643 -1683.879 119.7684
1240.91 142.2736 -1685.321 119.3732
1242.214 142.7764 -1686.785 118.9792
1243.523 142.511 -1688.266 118.5866
1244.798 142.511 -1689.768 118.1953
1246.038 142.511 -1691.29 117.8052
1247.244 142.511 -1692.831 117.4165
1248.446 142.511 -1694.367 117.029
1249.644 142.511 -1695.898 116.6428
1250.838 142.511 -1697.424 116.2579
1252.028 142.511 -1698.945 115.8742
1253.214 142.511 -1700.461 115.4918
1254.366 142.511 -1701.996 115.1107
1255.483 142.511 -1703.548 114.7309
1256.565 142.511 -1705.116 114.3522
1257.612 142.511 -1706.701 113.9749
1258.624 142.511 -1708.302 113.5988
1259.601 142.511 -1709.916 113.2239
1260.542 142.511 -1711.545 112.8502
1261.447 142.511 -1713.186 112.4778
1262.316 142.511 -1714.84 112.1067
1263.149 142.511 -1716.506 111.7367
1263.946 142.511 -1718.182 111.368
1264.707 142.511 -1719.868 111.0005
1265.432 142.511 -1721.564 110.6342
1266.12 142.511 -1723.268 110.2691
1266.772 142.511 -1724.98 109.9052
1267.388 142.511 -1726.699 109.5425
1267.967 142.511 -1728.424 109.181
1268.51 142.511 -1730.154 108.8207
1269.016 142.511 -1731.89 108.4616
1269.486 142.511 -1733.629 108.1037
1269.92 142.511 -1735.372 107.7469
1270.317 142.511 -1737.117 107.3914
1270.678 142.511 -1738.864 107.037
1271.003 142.511 -1740.612 106.6837
1271.292 142.511 -1742.36 106.3317
1271.547 142.511 -1744.12 106.6453
1271.768 142.511 -1745.888 106.9578
1271.953 142.511 -1747.667 107.2693
1272.103 142.511 -1749.453 107.5798
1272.218 142.511 -1751.248 107.8893
1272.297 142.511 -1753.049 108.1977
1272.341 142.511 -1754.857 108.5051
1272.348 142.511 -1756.671 108.8115
1272.318 142.511 -1758.489 109.1169
1272.289 142.511 -1760.313 109.4213
1272.26 142.511 -1762.141 109.7247
1272.23 142.511 -1763.974 110.0271
1272.2 142.511 -1765.813 110.3284
1272.171 142.511 -1767.657 110.6288
1272.141 142.511 -1769.505 110.9282
1272.111 142.511 -1771.359 111.2266
1272.081 142.511 -1773.217 111.5241
1272.051 142.511 -1775.081 111.8205
1272.021 142.511 -1776.949 112.116
1271.991 142.511 -1778.822 112.4105
1271.96 142.511 -1780.701 112.704
1271.93 142.511 -1782.584 112.9965
1271.9 142.511 -1784.472 113.2881
1271.869 142.511 -1786.364 113.5787
1271.839 142.511 -1788.262 113.8684
1271.808 142.511 -1790.164 114.1571
1271.777 142.511 -1792.071 114.4448
1271.747 142.511 -1793.983 114.7316
1271.716 142.511 -1795.9 115.0175
1271.685 142.511 -1797.822 115.3024
1271.654 142.511 -1799.748 115.5864
1271.623 142.511 -1801.679 115.8694
1271.591 142.511 -1803.614 116.1515
1271.56 142.511 -1805.555 116.4327
1271.529 142.511 -1807.5 116.7129
1271.497 142.511 -1809.449 116.9923
1271.466 142.511 -1811.403 117.2707
1271.434 142.511 -1813.362 117.5481
1271.403 142.511 -1815.326 117.8247
1271.371 142.511 -1817.294 118.1004
1271.339 142.511 -1819.267 118.3751
1271.307 142.511 -1821.244 118.6489
1271.275 142.511 -1823.226 118.9219
1271.243 142.511 -1825.212 119.1939
1271.211 142.511 -1827.203 119.465
1271.179 142.511 -1829.198 119.7353
1271.147 142.511 -1831.198 120.0046
1271.115 142.511 -1833.202 120.2731
1271.082 142.511 -1835.211 120.5406
1271.05 142.511 -1837.224 120.8073
1271.017 142.511 -1839.242 121.0731
1270.985 142.511 -1841.264 121.3381
1270.952 142.511 -1843.29 121.6021
1270.92 142.511 -1845.321 121.8653
1270.887 142.511 -1847.356 122.1276
1270.854 142.511 -1849.396 122.3891
1270.821 142.511 -1851.44 122.6497
1270.788 142.511 -1853.488 122.9094
1270.755 142.511 -1855.541 123.1683
1270.722 142.511 -1857.586 122.7618
1270.689 142.511 -1859.625 122.3567
1270.656 142.511 -1861.658 121.9529
1270.624 142.511 -1863.683 121.5505
1270.591 142.511 -1865.702 121.1494
1270.559 142.511 -1867.715 120.7496
1270.526 142.511 -1869.72 120.3511
1270.494 142.511 -1871.719 119.9539
1270.462 142.511 -1873.712 119.5581
1270.43 142.511 -1875.698 119.1635
1270.398 142.511 -1877.677 118.7703
1270.367 142.511 -1879.65 118.3783
1270.335 142.511 -1881.616 117.9877
1270.303 142.511 -1883.575 117.5983
1270.272 142.511 -1885.529 117.2103
1270.24 142.511 -1887.475 116.8235
1270.209 142.511 -1889.416 116.438
1270.178 142.511 -1891.35 116.0537
1270.147 142.511 -1893.289 116.3352
1270.116 142.511 -1895.232 116.6158
1270.084 142.511 -1897.18 116.8954
1270.053 142.511 -1899.133 117.1741
1270.021 142.511 -1901.09 117.4519
1269.99 142.511 -1903.052 117.7288
1269.958 142.511 -1905.018 118.0048
1269.926 142.511 -1906.989 118.2798
1269.894 142.511 -1908.965 118.554
1269.862 142.511 -1910.945 118.8272
1269.83 142.511 -1912.93 119.0995
1269.798 142.511 -1914.919 119.371
1269.766 142.511 -1916.913 119.6415
1269.734 142.511 -1918.911 119.9112
1269.702 142.511 -1920.914 120.18
1269.669 142.511 -1922.921 120.4478
1269.637 142.511 -1924.933 120.7148
1269.605 142.511 -1926.949 120.9809
1269.572 142.511 -1928.969 121.2462
1269.539 142.511 -1930.994 121.5105
1269.507 142.511 -1933.024 121.774
1269.474 142.511 -1935.057 122.0366
1269.441 142.511 -1937.095 122.2984
1269.408 142.511 -1939.138 122.5593
1269.375 142.511 -1941.185 122.8193
1269.342 142.511 -1943.236 123.0785
1269.309 142.511 -1945.291 123.3368
1269.276 142.511 -1947.351 123.5943
1269.243 142.511 -1949.415 123.8509
1269.209 142.511 -1951.483 124.1066
1269.176 142.511 -1953.555 124.3615
1269.143 142.511 -1955.632 124.6156
1269.109 142.511 -1957.713 124.8689
1269.075 142.511 -1959.798 125.1213
1269.042 142.511 -1961.887 125.3728
1269.008 142.511 -1963.969 124.9591
1268.975 142.511 -1966.045 124.5467
1268.941 142.511 -1968.114 124.1357
1268.908 142.511 -1970.176 123.7261
1268.875 142.511 -1972.231 123.3178
1268.842 142.511 -1974.279 122.9109
1268.809 142.511 -1976.32 122.5052
1268.776 142.511 -1978.355 122.101
1268.744 142.511 -1980.383 121.698
1268.711 142.511 -1982.405 121.2964
1268.679 142.511 -1984.419 120.8962
1268.646 142.511 -1986.427 120.4972
1268.614 142.511 -1988.429 120.0996
1268.582 142.511 -1990.423 119.7032
1268.55 142.511 -1992.412 119.3082
1268.518 142.511 -1994.393 118.9145
1268.486 142.511 -1996.368 118.5221
1268.454 142.511 -1998.337 118.131
1268.423 142.511 -2000.299 117.7411
1268.391 142.511 -2002.255 117.3526
1268.36 142.511 -2004.204 116.9653
1268.329 142.511 -2006.147 116.5793
1268.297 142.511 -2008.083 116.1946
1268.266 142.511 -2010.013 115.8112
1268.235 142.511 -2011.937 115.429
1268.204 142.511 -2013.854 115.0481
1268.174 142.511 -2015.765 114.6684
1268.143 142.511 -2017.669 114.29
1268.112 142.511 -2019.568 113.9129
1268.082 142.511 -2021.46 113.5369
1268.052 142.511 -2023.345 113.1623
1268.021 142.511 -2025.225 112.7888
1267.991 142.511 -2027.098 112.4166
1267.961 142.511 -2028.965 112.0457
1267.931 142.511 -2030.827 111.6759
1267.901 142.511 -2032.681 111.3074
1267.871 142.511 -2034.53 110.9401
1267.842 142.511 -2036.373 110.574
1267.812 142.511 -2038.209 110.2091
1267.783 142.511 -2040.04 109.8454
1267.753 142.511 -2041.864 109.4829
1267.724 142.511 -2043.683 109.1216
1267.695 142.511 -2045.495 108.7615
1267.666 142.511 -2047.302 108.4026
1267.637 142.511 -2049.102 108.0449
1267.608 142.511 -2050.897 107.6883
1267.615 142.511 -2052.686 107.333
1267.657 142.511 -2054.468 106.9788
1267.735 142.511 -2056.244 106.6257
1267.848 142.511 -2058.011 106.2739
1267.996 142.511 -2059.771 105.9232
1268.179 142.511 -2061.521 105.5736
1268.395 142.511 -2063.261 105.2252
1268.646 142.511 -2064.991 104.878
1268.93 142.511 -2066.709 104.5319
1269.248 142.511 -2068.417 104.1869
1269.598 142.511 -2070.112 103.8431
1269.981 142.511 -2071.793 103.5004
1270.396 142.511 -2073.462 103.1589
1270.844 142.511 -2075.116 102.8184
1271.322 142.511 -2076.756 102.4791
1271.831 142.511 -2078.38 102.141
1272.371 142.511 -2079.989 101.8039
1272.942 142.511 -2081.581 101.4679
1273.542 142.511 -2083.156 101.1331
1274.171 142.511 -2084.713 100.7993
1274.829 142.511 -2086.253 100.4667
1275.515 142.511 -2087.774 100.1352
1276.23 142.511 -2089.277 99.80472
1276.971 142.511 -2090.759 99.47536
1277.74 142.511 -2092.222 99.14709
1278.536 142.511 -2093.664 98.81991
1279.357 142.511 -2095.086 98.4938
1280.203 142.511 -2096.486 98.16878
1281.075 142.511 -2097.864 97.84482
1281.971 142.511 -2099.22 97.52193
1282.891 142.511 -2100.554 97.2001
1283.834 142.511 -2101.864 96.87934
1284.8 142.511 -2103.151 96.55964
1285.789 142.511 -2104.415 96.24099
1286.799 142.511 -2105.654 95.92339
1287.83 142.511 -2106.869 95.60685
1288.882 142.511 -2108.059 95.29134
1289.954 142.511 -2109.224 94.97688
1291.045 142.511 -2110.363 94.66346
1292.155 142.511 -2111.477 94.35107
1293.284 142.511 -2112.564 94.03971
1294.43 142.511 -2113.625 93.72938
1295.594 142.511 -2114.66 93.42007
1296.774 142.511 -2115.668 93.11179
1297.97 142.511 -2116.649 92.80452
1299.181 142.511 -2117.603 92.49827
1300.407 142.511 -2118.529 92.19302
1301.647 142.511 -2119.427 91.88879
1302.901 142.511 -2120.298 91.58556
1304.168 142.511 -2121.14 91.28333
1305.447 142.511 -2121.954 90.98209
1306.738 142.511 -2122.74 90.68185
1308.04 142.511 -2123.498 90.38261
1309.353 142.511 -2124.227 90.08434
1310.675 142.511 -2124.927 89.78706
1312.007 142.511 -2125.598 89.49077
1313.348 142.511 -2126.241 89.19545
1314.697 142.511 -2126.854 88.90111
1316.053 142.511 -2127.439 88.60773
1317.416 142.511 -2127.994 88.31533
1318.785 142.511 -2128.521 88.02389
1320.16 142.511 -2129.018 87.73341
1321.541 142.511 -2129.486 87.44389
1322.936 142.511 -2129.928 87.81979
1324.346 142.511 -2130.344 88.19446
1325.77 142.511 -2130.733 88.56789
1327.207 142.511 -2131.096 88.94009
1328.657 142.511 -2131.431 89.31106
1330.12 142.511 -2131.738 89.6808
1331.595 142.511 -2132.017 90.04932
1333.081 142.511 -2132.267 90.41663
1334.577 142.511 -2132.488 90.78273
1336.084 142.511 -2132.681 91.14762
1337.601 142.511 -2132.844 91.51131
1339.126 142.511 -2132.976 91.87379
1340.66 142.511 -2133.079 92.23508
1342.202 142.511 -2133.151 92.59518
1343.75 142.511 -2133.193 92.95409
1345.306 142.511 -2133.204 93.31181
1346.867 142.511 -2133.183 93.66836
1348.433 142.511 -2133.132 94.02373
1350.004 142.511 -2133.048 94.37792
1351.578 142.511 -2132.933 94.73095
1353.156 142.511 -2132.786 95.08281
1354.736 142.511 -2132.606 95.43351
1356.319 142.511 -2132.394 95.78305
1357.907 142.511 -2132.182 96.13144
1359.5 142.511 -2131.968 96.47868
1361.1 142.511 -2131.754 96.82477
1362.705 142.511 -2131.539 97.16972
1364.316 142.511 -2131.324 97.51353
1365.932 142.511 -2131.107 97.8562
1367.555 142.511 -2130.89 98.19775
1369.182 142.511 -2130.672 98.53816
1370.816 142.511 -2130.453 98.87746
1372.455 142.511 -2130.234 99.21563
1374.099 142.511 -2130.013 99.55269
1375.75 142.511 -2129.792 99.88863
1377.405 142.511 -2129.571 100.2235
1379.066 142.511 -2129.348 100.5572
1380.733 142.511 -2129.125 100.8898
1382.405 142.511 -2128.901 101.2214
1384.083 142.511 -2128.677 101.5518
1385.766 142.511 -2128.451 101.8812
1387.454 142.511 -2128.225 102.2094
1389.148 142.511 -2127.999 102.5366
1390.847 142.511 -2127.771 102.8627
1392.556 142.511 -2127.577 103.1877
1394.274 142.511 -2127.417 103.5117
1396 142.511 -2127.29 103.8346
1397.733 142.511 -2127.198 104.1564
1399.474 142.511 -2127.14 104.4771
1401.219 142.511 -2127.083 104.7968
1402.97 142.511 -2127.025 105.1155
1404.726 142.511 -2126.967 105.4331
1406.488 142.511 -2126.908 105.7496
1408.255 142.511 -2126.85 106.0651
1410.027 142.511 -2126.791 106.3796
1411.804 142.511 -2126.732 106.693
1413.586 142.511 -2126.673 107.0054
1415.374 142.511 -2126.614 107.3167
1417.167 142.511 -2126.555 107.6271
1418.965 142.511 -2126.495 107.9364
1420.768 142.511 -2126.435 108.2446
1422.576 142.511 -2126.375 108.5519
1424.39 142.511 -2126.315 108.8582
1426.208 142.511 -2126.255 109.1634
1428.031 142.511 -2126.195 109.4676
1429.86 142.511 -2126.134 109.7709
1431.693 142.511 -2126.073 110.0731
1433.532 142.511 -2126.013 110.3743
1435.376 142.511 -2125.952 110.6746
1437.224 142.511 -2125.89 110.9738
1439.078 142.511 -2125.829 111.2721
1440.936 142.511 -2125.768 111.5693
1442.8 142.511 -2125.706 111.8656
1444.668 142.511 -2125.644 112.1609
1446.541 142.511 -2125.582 112.4553
1448.419 142.511 -2125.52 112.7486
1450.302 142.511 -2125.458 113.0411
1452.19 142.511 -2125.395 113.3325
1454.083 142.511 -2125.332 113.623
1455.98 142.511 -2125.27 113.9125
1457.883 142.511 -2125.207 114.201
1459.79 142.511 -2125.143 114.4886
1461.702 142.511 -2125.08 114.7753
1463.618 142.511 -2125.017 115.061
1465.54 142.511 -2124.953 115.3458
1467.466 142.511 -2124.889 115.6296
1469.396 142.511 -2124.825 115.9125
1471.332 142.511 -2124.761 116.1945
1473.272 142.511 -2124.697 116.4755
1475.217 142.511 -2124.633 116.7556
1477.167 142.511 -2124.568 117.0348
1479.121 142.511 -2124.503 117.313
1481.079 142.511 -2124.438 117.5904
1483.043 142.511 -2124.374 117.8668
1485.011 142.511 -2124.308 118.1423
1486.983 142.511 -2124.243 118.4169
1488.96 142.511 -2124.177 118.6906
1490.942 142.511 -2124.112 118.9634
1492.928 142.511 -2124.046 119.2353
1494.919 142.511 -2123.98 119.5063
1496.914 142.511 -2123.914 119.7764
1498.914 142.511 -2123.848 120.0456
1500.918 142.511 -2123.781 120.3139
1502.927 142.511 -2123.715 120.5813
1504.94 142.511 -2123.648 120.8479
1506.957 142.511 -2123.582 121.1136
1508.979 142.511 -2123.515 121.3784
1511.005 142.511 -2123.448 121.6423
1513.036 142.511 -2123.38 121.9053
1515.071 142.511 -2123.313 122.1675
1517.11 142.511 -2123.245 122.4288
1519.154 142.511 -2123.178 122.6893
1521.202 142.511 -2123.11 122.9489
1523.254 142.511 -2123.042 123.2076
1525.311 142.511 -2122.974 123.4655
1527.372 142.511 -2122.906 123.7226
1529.437 142.511 -2122.837 123.9788
1531.506 142.511 -2122.769 124.2341
1533.58 142.511 -2122.7 124.4886
1535.658 142.511 -2122.631 124.7423
1537.74 142.511 -2122.563 124.9951
1539.826 142.511 -2122.493 125.2471
1541.917 142.511 -2122.424 125.4982
1544.012 142.511 -2122.355 125.7486
1546.11 142.511 -2122.285 125.9981
1548.213 142.511 -2122.216 126.2467
1550.32 142.511 -2122.146 126.4946
1552.432 142.511 -2122.076 126.7416
1554.547 142.511 -2122.006 126.9879
1556.666 142.511 -2121.936 127.2333
1558.79 142.511 -2121.865 127.4779
1560.918 142.511 -2121.838 127.7217
1563.051 142.511 -2121.852 127.9647
1565.187 142.511 -2121.91 128.2068
1567.325 142.511 -2122.01 128.4482
1569.465 142.511 -2122.153 128.6888
1571.609 142.511 -2122.297 128.9286
1573.757 142.511 -2122.441 129.1676
1575.909 142.511 -2122.585 129.4058
1578.065 142.511 -2122.729 129.6433
1580.225 142.511 -2122.874 129.8799
1582.389 142.511 -2123.019 130.1158
1584.556 142.511 -2123.165 130.3509
1586.728 142.511 -2123.31 130.5852
1588.903 142.511 -2123.456 130.8187
1591.083 142.511 -2123.602 131.0515
1593.266 142.511 -2123.748 131.2835
1595.453 142.511 -2123.895 131.5147
1597.644 142.511 -2124.041 131.7452
1599.838 142.511 -2124.188 131.9749
1602.037 142.511 -2124.335 132.2039
1604.239 142.511 -2124.483 132.4321
1606.445 142.511 -2124.631 132.6595
1608.655 142.511 -2124.779 132.8862
1610.869 142.511 -2124.927 133.1122
1613.086 142.511 -2125.075 133.3374
1615.307 142.511 -2125.224 133.5618
1617.532 142.511 -2125.374 133.7855
1619.76 142.511 -2125.523 134.0085
1621.992 142.511 -2125.673 134.2308
1624.228 142.511 -2125.823 134.4523
1626.468 142.511 -2125.973 134.673
1628.711 142.511 -2126.123 134.8931
1630.958 142.511 -2126.274 135.1124
1633.208 142.511 -2126.425 135.331
1635.462 142.511 -2126.576 135.5489
1637.72 142.511 -2126.727 135.7661
1639.981 142.511 -2126.879 135.9825
1642.246 142.511 -2127.031 136.1982
1644.515 142.511 -2127.183 136.4133
1646.787 142.511 -2127.335 136.6276
1649.063 142.511 -2127.488 136.8412
1651.342 142.511 -2127.64 137.0541
1653.624 142.511 -2127.793 137.2663
1655.911 142.511 -2127.946 137.4777
1658.2 142.511 -2128.099 137.6885
1660.493 142.511 -2128.253 137.8986
1662.79 142.511 -2128.407 138.108
1665.09 142.511 -2128.561 138.3168
1667.394 142.511 -2128.715 138.5248
1669.701 142.511 -2128.87 138.7321
1672.011 142.511 -2129.024 138.9388
1674.314 142.511 -2129.179 138.4803
1676.609 142.511 -2129.333 138.0233
1678.897 142.511 -2129.486 137.5678
1681.177 142.511 -2129.639 137.1138
1683.45 142.511 -2129.791 136.6614
1685.715 142.511 -2129.943 136.2104
1687.973 142.511 -2130.094 135.7609
1690.223 142.511 -2130.245 135.3129
1692.465 142.511 -2130.396 134.8663
1694.701 142.511 -2130.545 134.4213
1696.929 142.511 -2130.694 133.9777
1699.149 142.511 -2130.843 133.5356
1701.363 142.511 -2130.991 133.0949
1703.569 142.511 -2131.139 132.6557
1705.767 142.511 -2131.286 132.2179
1707.959 142.511 -2131.433 131.7816
1710.143 142.511 -2131.579 131.3467
1712.32 142.511 -2131.725 130.9133
1714.49 142.511 -2131.87 130.4813
1716.652 142.511 -2132.015 130.0507
1718.808 142.511 -2132.16 129.6215
1720.956 142.511 -2132.304 129.1938
1723.098 142.511 -2132.447 128.7674
1725.232 142.511 -2132.59 128.3425
1727.359 142.511 -2132.733 127.919
1729.479 142.511 -2132.875 127.4968
1731.593 142.511 -2133.017 127.0761
1733.699 142.511 -2133.158 126.6567
1735.798 142.511 -2133.298 126.2388
1737.891 142.511 -2133.438 125.8222
1739.976 142.511 -2133.578 125.407
1742.055 142.511 -2133.717 124.9931
1744.126 142.511 -2133.856 124.5807
1746.191 142.511 -2133.995 124.1695
1748.249 142.511 -2134.133 123.7598
1750.3 142.511 -2134.27 123.3514
1752.345 142.511 -2134.407 122.9443
1754.383 142.511 -2134.543 122.5386
1756.414 142.511 -2134.679 122.1342
1758.438 142.511 -2134.815 121.7312
1760.455 142.511 -2134.95 121.3295
1762.466 142.511 -2135.085 120.9291
1764.471 142.511 -2135.219 120.53
1766.469 142.511 -2135.353 120.1323
1768.46 142.511 -2135.487 119.7358
1770.444 142.511 -2135.62 119.3407
1772.422 142.511 -2135.752 118.9469
1774.394 142.511 -2135.884 118.5543
1776.361 142.511 -2135.977 118.1631
1778.323 142.511 -2136.029 117.7732
1780.29 142.511 -2136.043 118.049
1782.262 142.511 -2136.017 118.3239
1784.238 142.511 -2135.952 118.5979
1786.216 142.511 -2135.846 118.871
1788.197 142.511 -2135.701 119.1432
1790.178 142.511 -2135.516 119.4145
1792.16 142.511 -2135.291 119.6849
1794.142 142.511 -2135.026 119.9544
1796.122 142.511 -2134.72 120.223
1798.1 142.511 -2134.374 120.4908
1800.076 142.511 -2133.988 120.7576
1802.047 142.511 -2133.562 121.0236
1804.014 142.511 -2133.094 121.2887
1805.975 142.511 -2132.587 121.5529
1807.93 142.511 -2132.04 121.8163
1809.878 142.511 -2131.452 122.0787
1811.818 142.511 -2130.824 122.3403
1813.749 142.511 -2130.156 122.6011
1815.66 142.511 -2129.451 122.1965
1817.55 142.511 -2128.711 121.7933
1819.419 142.511 -2127.936 121.3913
1821.266 142.511 -2127.127 120.9908
1823.09 142.511 -2126.283 120.5915
1824.892 142.511 -2125.406 120.1935
1826.669 142.511 -2124.497 119.7969
1828.422 142.511 -2123.555 119.4016
1830.15 142.511 -2122.581 119.0075
1831.853 142.511 -2121.576 118.6148
1833.529 142.511 -2120.541 118.2234
1835.179 142.511 -2119.476 117.8333
1836.802 142.511 -2118.382 117.4444
1838.398 142.511 -2117.26 117.0568
1839.966 142.511 -2116.109 116.6706
1841.505 142.511 -2114.932 116.2855
1843.015 142.511 -2113.727 115.9018
1844.496 142.511 -2112.497 115.5193
1845.948 142.511 -2111.242 115.1381
1847.369 142.511 -2109.962 114.7582
1848.76 142.511 -2108.658 114.3795
1850.12 142.511 -2107.331 114.002
1851.449 142.511 -2105.982 113.6258
1852.746 142.511 -2104.611 113.2508
1854.011 142.511 -2103.219 112.8771
1855.244 142.511 -2101.806 112.5046
1856.445 142.511 -2100.374 112.1334
1857.613 142.511 -2098.923 111.7633
1858.748 142.511 -2097.454 111.3945
1859.85 142.511 -2095.967 111.0269
1860.918 142.511 -2094.463 110.6605
1861.952 142.511 -2092.944 110.2953
1862.953 142.511 -2091.409 109.9314
1863.919 142.511 -2089.859 109.5686
1864.851 142.511 -2088.296 109.207
1865.749 142.511 -2086.72 108.8466
1866.612 142.511 -2085.131 108.4874
1867.441 142.511 -2083.531 108.1294
1868.235 142.511 -2081.919 107.7726
1868.993 142.511 -2080.298 107.4169
1869.717 142.511 -2078.667 107.0625
1870.406 142.511 -2077.027 106.7092
1871.06 142.511 -2075.379 106.357
1871.678 142.511 -2073.724 106.006
1872.262 142.511 -2072.063 105.6562
1872.813 142.511 -2070.385 105.972
1873.333 142.511 -2068.692 106.2868
1873.82 142.511 -2066.983 106.6005
1874.274 142.511 -2065.26 106.9132
1874.695 142.511 -2063.523 107.2249
1875.082 142.511 -2061.773 107.5355
1875.435 142.511 -2060.011 107.8451
1875.754 142.511 -2058.237 108.1537
1876.038 142.511 -2056.451 108.4612
1876.286 142.511 -2054.656 108.7678
1876.5 142.511 -2052.85 109.0733
1876.678 142.511 -2051.036 109.3779
1876.82 142.511 -2049.214 109.6814
1876.925 142.511 -2047.384 109.9839
1876.995 142.511 -2045.547 110.2854
1877.027 142.511 -2043.704 110.586
1877.023 142.511 -2041.856 110.8855
1876.982 142.511 -2040.003 111.184
1876.903 142.511 -2038.147 111.4816
1876.824 142.511 -2036.286 111.7782
1876.745 142.511 -2034.419 112.0738
1876.666 142.511 -2032.548 112.3684
1876.587 142.511 -2030.672 112.6621
1876.507 142.511 -2028.791 112.9548
1876.427 142.511 -2026.906 113.2465
1876.347 142.511 -2025.015 113.5372
1876.267 142.511 -2023.12 113.827
1876.187 142.511 -2021.219 114.1159
1876.106 142.511 -2019.314 114.4038
1876.025 142.511 -2017.405 114.6907
1875.944 142.511 -2015.49 114.9767
1875.863 142.511 -2013.571 115.2617
1875.782 142.511 -2011.647 115.5459
1875.7 142.511 -2009.718 115.829
1875.618 142.511 -2007.784 116.1113
1875.536 142.511 -2005.846 116.3926
1875.454 142.511 -2003.903 116.6729
1875.371 142.511 -2001.956 116.9524
1875.289 142.511 -2000.004 117.2309
1875.206 142.511 -1998.047 117.5085
1875.123 142.511 -1996.086 117.7852
1875.04 142.511 -1994.12 118.061
1874.956 142.511 -1992.149 118.3359
1874.873 142.511 -1990.174 118.6098
1874.789 142.511 -1988.195 118.8829
1874.705 142.511 -1986.21 119.1551
1874.621 142.511 -1984.222 119.4263
1874.536 142.511 -1982.229 119.6967
1874.452 142.511 -1980.231 119.9661
1874.367 142.511 -1978.229 120.2347
1874.282 142.511 -1976.222 120.5024
1874.197 142.511 -1974.211 120.7692
1874.112 142.511 -1972.196 121.0352
1874.026 142.511 -1970.176 121.3002
1873.941 142.511 -1968.152 121.5644
1873.855 142.511 -1966.123 121.8277
1873.769 142.511 -1964.09 122.0902
1873.683 142.511 -1962.052 122.3517
1873.596 142.511 -1960.011 122.6124
1873.51 142.511 -1957.965 122.8723
1873.423 142.511 -1955.914 123.1313
1873.336 142.511 -1953.86 123.3894
1873.249 142.511 -1951.801 123.6467
1873.161 142.511 -1949.737 123.9032
1873.115 142.511 -1947.669 124.1588
1873.111 142.511 -1945.595 124.4135
1873.147 142.511 -1943.517 124.6674
1873.184 142.511 -1941.436 124.9205
1873.221 142.511 -1939.35 125.1727
1873.258 142.511 -1937.26 125.4241
1873.295 142.511 -1935.166 125.6747
1873.332 142.511 -1933.067 125.9244
1873.37 142.511 -1930.965 126.1734
1873.407 142.511 -1928.858 126.4215
1873.444 142.511 -1926.747 126.6687
1873.482 142.511 -1924.632 126.9152
1873.519 142.511 -1922.513 127.1609
1873.557 142.511 -1920.39 127.4057
1873.594 142.511 -1918.263 127.6497
1873.632 142.511 -1916.132 127.893
1873.67 142.511 -1913.996 128.1354
1873.708 142.511 -1911.857 128.377
1873.746 142.511 -1909.714 128.6178
1873.784 142.511 -1907.567 128.8579
1873.822 142.511 -1905.415 129.0971
1873.86 142.511 -1903.26 129.3356
1873.898 142.511 -1901.101 129.5732
1873.937 142.511 -1898.938 129.8101
1873.975 142.511 -1896.771 130.0462
1874.013 142.511 -1894.599 130.2815
1874.052 142.511 -1892.425 130.5161
1874.09 142.511 -1890.246 130.7498
1874.129 142.511 -1888.063 130.9828
1874.168 142.511 -1885.876 131.2151
1874.207 142.511 -1883.686 131.4465
1874.245 142.511 -1881.492 131.6772
1874.284 142.511 -1879.294 131.9072
1874.323 142.511 -1877.092 132.1363
1874.362 142.511 -1874.886 132.3648
1874.401 142.511 -1872.677 132.5924
1874.441 142.511 -1870.463 132.8193
1874.48 142.511 -1868.246 133.0455
1874.475 142.511 -1866.025 133.2709
1874.425 142.511 -1863.801 133.4956
1874.331 142.511 -1861.574 133.7195
1874.192 142.511 -1859.346 133.9427
1874.053 142.511 -1857.114 134.1652
1873.913 142.511 -1854.879 134.3869
1873.774 142.511 -1852.64 134.6079
1873.634 142.511 -1850.397 134.8282
1873.494 142.511 -1848.15 135.0477
1873.353 142.511 -1845.9 135.2665
1873.213 142.511 -1843.646 135.4846
1873.072 142.511 -1841.389 135.702
1872.931 142.511 -1839.128 135.9186
1872.79 142.511 -1836.864 136.1346
1872.648 142.511 -1834.596 136.3498
1872.506 142.511 -1832.324 136.5643
1872.364 142.511 -1830.049 136.7781
1872.222 142.511 -1827.77 136.9912
1872.08 142.511 -1825.488 137.2036
1871.937 142.511 -1823.202 137.4153
1871.795 142.511 -1820.913 137.6263
1871.651 142.511 -1818.62 137.8367
1871.508 142.511 -1816.323 138.0463
1871.365 142.511 -1814.024 138.2552
1871.221 142.511 -1811.72 138.4634
1871.077 142.511 -1809.414 138.671
1870.933 142.511 -1807.104 138.8778
1870.789 142.511 -1804.79 139.084
1870.644 142.511 -1802.473 139.2895
1870.5 142.511 -1800.152 139.4943
1870.354 142.511 -1797.829 139.6985
1870.209 142.511 -1795.501 139.9019
1870.064 142.511 -1793.171 140.1047
1869.918 142.511 -1790.837 140.3069
1869.773 142.511 -1788.5 140.5083
1869.627 142.511 -1786.159 140.7091
1869.48 142.511 -1783.815 140.9092
1869.334 142.511 -1781.468 141.1087
1869.187 142.511 -1779.117 141.3075
1869.041 142.511 -1776.763 141.5057
1868.893 142.511 -1774.406 141.7032
1868.746 142.511 -1772.046 141.9
1868.599 142.511 -1769.682 142.0962
1868.451 142.511 -1767.315 142.2918
1868.303 142.511 -1764.945 142.4867
1868.155 142.511 -1762.572 142.681
1868.007 142.511 -1760.195 142.8746
1867.858 142.511 -1757.815 143.0676
1867.71 142.511 -1755.432 143.2599
1867.561 142.511 -1753.046 143.4516
1867.412 142.511 -1750.656 143.6427
1867.263 142.511 -1748.264 143.8332
1867.113 142.511 -1745.868 144.023
1866.964 142.511 -1743.469 144.2122
1866.814 142.511 -1741.067 144.4008
1866.664 142.511 -1738.662 144.5887
1866.513 142.511 -1736.254 144.776
1866.363 142.511 -1733.843 144.9627
1866.212 142.511 -1731.428 145.1488
1866.062 142.511 -1729.01 145.3343
1865.911 142.511 -1726.59 145.5192
1865.759 142.511 -1724.166 145.7035
1865.608 142.511 -1721.739 145.8871
1865.456 142.511 -1719.31 146.0702
1865.305 142.511 -1716.877 146.2526
1865.202 142.511 -1714.438 146.4344
1865.147 142.511 -1711.995 146.6157
1865.141 142.511 -1709.549 146.7963
1865.185 142.511 -1707.099 146.9763
1865.277 142.511 -1704.649 147.1558
1865.419 142.511 -1702.197 147.3347
1865.61 142.511 -1699.746 147.5129
1865.85 142.511 -1697.296 147.6906
1866.139 142.511 -1694.849 147.8677
1866.478 142.511 -1692.405 148.0442
1866.866 142.511 -1689.965 148.2201
1867.303 142.511 -1687.531 148.3955
1867.789 142.511 -1685.103 148.5702
1868.325 142.511 -1682.682 148.7444
1868.861 142.511 -1680.259 148.918
1869.397 142.511 -1677.833 149.0911
1869.935 142.511 -1675.404 149.2635
1870.473 142.511 -1672.972 149.4355
1871.011 142.511 -1670.537 149.6068
1871.551 142.511 -1668.1 149.7776
1872.09 142.511 -1665.66 149.9478
1872.631 142.511 -1663.217 150.1174
1873.172 142.511 -1660.771 150.2865
1873.713 142.511 -1658.323 150.455
1874.256 142.511 -1655.872 150.623
1874.798 142.511 -1653.418 150.7904
1875.342 142.511 -1650.961 150.9573
1875.886 142.511 -1648.502 151.1236
1876.431 142.511 -1646.04 151.2894
1876.976 142.511 -1643.575 151.4546
1877.521 142.511 -1641.108 151.6193
1878.068 142.511 -1638.638 151.7834
1878.615 142.511 -1636.165 151.947
1879.162 142.511 -1633.69 152.11
1879.711 142.511 -1631.212 152.2725
1880.259 142.511 -1628.731 152.4345
1880.809 142.511 -1626.248 152.5959
1881.359 142.511 -1623.762 152.7568
1881.909 142.511 -1621.274 152.9172
1882.46 142.511 -1618.783 153.0771
1883.012 142.511 -1616.289 153.2364
1883.564 142.511 -1613.793 153.3952
1884.116 142.511 -1611.294 153.5534
1884.67 142.511 -1608.793 153.7112
1885.224 142.511 -1606.289 153.8684
1885.728 142.511 -1603.772 154.0251
1886.182 142.511 -1601.242 154.1813
1886.586 142.511 -1598.702 154.337
1886.939 142.511 -1596.151 154.4921
1887.242 142.511 -1593.592 154.6468
1887.494 142.511 -1591.024 154.8009
1887.694 142.511 -1588.449 154.9546
1887.843 142.511 -1585.869 155.1077
1887.941 142.511 -1583.283 155.2603
1887.987 142.511 -1580.693 155.4124
1887.981 142.511 -1578.1 155.564
1887.923 142.511 -1575.505 155.7151
1887.813 142.511 -1572.91 155.8657
1887.651 142.511 -1570.315 156.0159
1887.437 142.511 -1567.721 156.1655
1887.171 142.511 -1565.129 156.3146
1886.905 142.511 -1562.535 156.4632
1886.638 142.511 -1559.938 156.6114
1886.371 142.511 -1557.339 156.759
1886.104 142.511 -1554.738 156.9062
1885.837 142.511 -1552.134 157.0529
1885.569 142.511 -1549.528 157.1991
1885.302 142.511 -1546.919 157.3448
1885.033 142.511 -1544.308 157.49
1884.765 142.511 -1541.694 157.6348
1884.497 142.511 -1539.078 157.7791
1884.228 142.511 -1536.46 157.9229
1883.959 142.511 -1533.839 158.0662
1883.689 142.511 -1531.216 158.209
1883.42 142.511 -1528.591 158.3514
1883.15 142.511 -1525.963 158.4933
1882.88 142.511 -1523.333 158.6348
1882.61 142.511 -1520.701 158.7758
1882.339 142.511 -1518.066 158.9163
1882.069 142.511 -1515.429 159.0563
1881.798 142.511 -1512.789 159.1959
1881.526 142.511 -1510.148 159.335
1881.255 142.511 -1507.504 159.4737
1880.983 142.511 -1504.857 159.6119
1880.711 142.511 -1502.209 159.7497
1880.439 142.511 -1499.558 159.887
1880.167 142.511 -1496.905 160.0238
1879.894 142.511 -1494.25 160.1602
1879.622 142.511 -1491.592 160.2962
1879.349 142.511 -1488.932 160.4317
1879.075 142.511 -1486.27 160.5667
1878.802 142.511 -1483.606 160.7013
1878.528 142.511 -1480.939 160.8354
1878.254 142.511 -1478.27 160.9692
1878.033 142.511 -1475.594 161.1024
1877.866 142.511 -1472.912 161.2353
1877.752 142.511 -1470.225 161.3677
1877.296 142.511 -1459.455 161.8929
1876.61 142.511 -1443.235 162.6678
1875.92 142.511 -1426.938 163.4275
1875.227 142.511 -1410.567 164.1723
1874.531 142.511 -1394.122 164.9025
1873.887 142.511 -1377.602 165.6183
1874.126 142.511 -1361.002 166.3201
1874.421 142.511 -1344.332 167.0081
1874.717 142.511 -1327.594 167.6826
1875.015 142.511 -1310.79 168.3438
1875.313 142.511 -1293.92 168.9921
1875.613 142.511 -1276.986 169.6276
1875.914 142.511 -1259.99 170.2506
1876.216 142.511 -1242.932 170.8615
1876.519 142.511 -1225.813 171.4603
1876.823 142.511 -1208.635 172.0473
1877.128 142.511 -1191.4 172.6228
1877.434 142.511 -1174.107 173.1871
1877.741 142.511 -1156.759 173.7402
1878.049 142.511 -1139.356 174.2825
1878.358 142.511 -1121.899 174.8141
1878.668 142.511 -1104.39 175.3353
1878.979 142.511 -1086.829 175.8463
1879.291 142.511 -1069.218 176.3472
1879.604 142.511 -1051.557 176.8383
1879.917 142.511 -1033.848 177.3197
1880.231 142.511 -1016.091 177.7917
1880.547 142.511 -998.2875 178.2544
1880.803 142.511 -980.4379 178.7081
1879.867 142.511 -962.5675 179.1528
1878.75 142.511 -944.6614 179.5888
1877.631 142.511 -926.7124 180.0163
1876.508 142.511 -908.7213 180.4353
1875.383 142.511 -890.6887 180.8461
1874.256 142.511 -872.6157 181.2488
1873.126 142.511 -854.5029 181.6437
1871.994 142.511 -836.3511 182.0307
1870.863 142.511 -818.2274 180.4234
1869.752 142.511 -800.4268 176.8803
1868.708 142.511 -782.7419 177.361
1869.141 142.511 -764.9914 177.8321
1870.169 142.511 -747.2108 178.2941
1871.198 142.511 -729.3845 178.7469
1872.231 142.511 -711.5135 179.1909
1873.265 142.511 -693.5988 179.6261
1874.303 142.511 -675.6412 180.0528
1875.342 142.511 -657.6414 180.4711
1876.385 142.511 -639.6002 180.8813
1877.429 142.511 -621.5187 181.2833
1878.476 142.511 -603.3975 181.6775
1879.525 142.511 -585.2373 182.0639
1880.576 142.511 -567.0391 182.4427
1881.629 142.511 -548.8035 182.8141
1882.684 142.511 -530.5312 183.1782
1883.742 142.511 -512.223 183.5352
1884.802 142.511 -493.8795 183.8851
1885.863 142.511 -475.5015 184.2281
1886.927 142.511 -457.0897 184.5645
1887.931 142.511 -438.6417 184.8942
1887.703 142.511 -420.1369 185.2174
1887.289 142.511 -401.6012 185.5343
1886.875 142.511 -383.0342 185.845
1886.46 142.511 -364.4365 186.1496
1886.045 142.511 -345.8087 186.4482
1885.629 142.511 -327.1513 186.7409
1885.212 142.511 -308.4651 187.0279
1884.795 142.511 -289.7504 187.3093
1884.377 142.511 -271.008 187.5851
1883.958 142.511 -252.2383 187.8555
1883.539 142.511 -233.4419 188.1206
1883.119 142.511 -214.6193 188.3805
1882.698 142.511 -195.771 188.6353
1882.277 142.511 -176.8975 188.8851
1881.856 142.511 -157.9993 189.13
1881.434 142.511 -139.077 189.37
1881.011 142.511 -120.1309 189.6054
1880.588 142.511 -101.1615 189.8361
1880.165 142.511 -82.16936 190.0623
1879.741 142.511 -63.15485 190.2841
1879.316 142.511 -44.11843 190.5015
1878.891 142.511 -25.06051 190.7146
1878.465 142.511 -5.981537 190.9235
1878.039 142.511 13.11809 191.1284
1877.613 142.511 32.23796 191.3292
1877.186 142.511 51.37767 191.5261
1876.759 142.511 70.53685 191.7191
1876.331 142.511 89.7151 191.9084
1875.903 142.511 108.912 192.0939
1875.474 142.511 128.1273 192.2757
1875.045 142.511 147.3606 192.454
1874.616 142.511 166.6115 192.6288
1874.186 142.511 185.8796 192.8002
1873.756 142.511 205.1647 192.9682
1873.326 142.511 224.4664 193.1329
1872.895 142.511 243.7844 193.2943
1872.464 142.511 263.1183 193.4526
1872.032 142.511 282.4679 193.6078
1870.633 142.511 301.7848 193.7599
1869.04 142.511 321.1039 193.9091
1867.445 142.511 340.4377 194.0553
1865.849 142.511 359.786 194.1987
1864.64 142.511 379.1713 194.3392
1865.566 142.511 398.5799 194.4769
1868.812 142.511 417.7514 194.612
1873.711 142.511 436.5934 194.7444
1878.676 142.511 455.4322 194.8743
1883.644 142.511 474.2833 195.0015
1888.553 142.511 493.1625 195.1263
1891.809 142.511 512.3973 195.2486
1892.74 142.511 531.8956 195.3685
1891.978 142.511 551.424 195.4861
1891.151 142.511 570.9619 195.6013
1890.324 142.511 590.5112 195.7143
1889.496 142.511 610.0717 195.8251
1888.668 142.511 629.643 195.9337
1887.839 142.511 649.2251 196.0401
1887.01 142.511 668.8177 196.1445
1886.18 142.511 688.4207 196.2468
1885.35 142.511 708.0336 196.3471
1884.519 142.511 727.6566 196.4455
1883.688 142.511 747.2892 196.5419
1882.857 142.511 766.9313 196.6364
1882.025 142.511 786.5828 196.7291
1881.203 142.511 806.0124 192.8658
1880.396 142.511 825.0605 189.0784
1879.596 142.511 843.9656 189.3195
1878.795 142.511 862.8945 189.5559
1877.993 142.511 881.8466 189.7876
1877.19 142.511 900.8217 190.0147
1876.386 142.511 919.8193 190.2374
1875.581 142.511 938.8388 190.4557
1874.775 142.511 957.8799 190.6698
1873.968 142.511 976.9421 190.8796
1873.16 142.511 996.025 191.0853
1872.352 142.511 1015.128 191.287
1871.542 142.511 1034.251 191.4847
1870.732 142.511 1053.394 191.6786
1869.921 142.511 1072.556 191.8686
1869.302 142.511 1091.742 192.0549
1870.218 142.511 1110.934 192.2375
1871.327 142.511 1130.136 192.4165
1872.437 142.511 1149.356 192.5921
1873.548 142.511 1168.593 192.7641
1874.661 142.511 1187.848 192.9329
1875.774 142.511 1207.119 193.0982
1875.922 142.511 1226.426 193.2604
1874.719 142.511 1245.724 193.4193
1873.514 142.511 1265.037 193.5752
1872.308 142.511 1284.366 193.728
1871.101 142.511 1303.71 193.8777
1870.863 142.511 1323.094 194.0246
1872.305 142.511 1342.451 194.1685
1873.813 142.511 1361.817 194.3096
1875.322 142.511 1381.198 194.448
1876.832 142.511 1400.592 194.5837
1878.343 142.511 1419.999 194.7166
1879.855 142.511 1439.42 194.847
1881.368 142.511 1458.853 194.9748
1882.882 142.511 1478.299 195.1001
1884.202 142.511 1497.769 195.2229
1884.548 142.511 1517.296 195.3433
1884.894 142.511 1536.834 195.4614
1885.24 142.511 1556.384 195.5771
1885.586 142.511 1575.945 195.6906
1885.933 142.511 1595.518 195.8018
1886.279 142.511 1615.101 195.9108
1886.626 142.511 1634.696 196.0178
1886.973 142.511 1654.3 196.1226
1887.321 142.511 1673.916 196.2253
1887.668 142.511 1693.541 196.326
1888.016 142.511 1713.176 196.4248
1888.363 142.511 1732.821 196.5216
1888.708 142.511 1752.311 193.316
1889.047 142.511 1771.417 189.5198
1889.378 142.511 1790.149 185.7981
1889.703 142.511 1808.512 182.1495
1890.021 142.511 1826.449 176.5857
1890.326 142.511 1843.671 169.164
1890.618 142.511 1860.159 161.888
1890.897 142.511 1875.928 154.7548
1891.164 142.511 1890.992 147.7618
1891.418 142.511 1905.365 140.9061
1891.661 142.511 1919.06 134.185
1891.459 142.511 1932.152 129.5827
1889.773 142.511 1944.843 127.038
1886.642 142.511 1956.997 124.5433
1882.169 142.511 1968.459 122.0976
1876.469 142.511 1979.09 119.6999
1869.674 142.511 1988.769 117.3493
1861.925 142.511 1997.391 115.0449
1853.37 142.511 2004.875 112.7857
1844.027 142.511 2011.244 113.8714
1833.835 142.511 2016.529 115.5894
1822.924 142.511 2020.615 117.2736
1811.441 142.511 2023.405 118.9247
1799.545 142.511 2024.82 120.5434
1787.405 142.511 2024.8 122.1304
1775.198 142.511 2023.308 123.6861
1763.047 142.511 2020.571 125.2113
1750.775 142.511 2017.678 126.7066
1738.358 142.511 2014.751 128.1725
1725.801 142.511 2011.791 129.6096
1713.096 142.511 2008.841 131.0185
1700.053 142.511 2006.984 132.3997
1686.768 142.511 2006.033 133.7538
1673.349 142.511 2005.072 135.0814
1659.776 142.511 2004.781 136.3828
1646.079 142.511 2005.446 137.6587
1632.256 142.511 2006.116 138.9095
1618.31 142.511 2006.793 140.1358
1604.242 142.511 2007.476 141.338
1590.051 142.511 2008.023 142.5166
1575.737 142.511 2008.431 143.672
1561.31 142.511 2008.842 144.8048
1546.77 142.511 2009.256 145.9153
1532.122 142.511 2009.185 147.0039
1517.379 142.511 2008.425 148.0712
1502.53 142.511 2007.659 149.1176
1487.578 142.511 2006.888 150.1434
1472.525 142.511 2006.113 151.1491
1457.373 142.511 2005.331 152.135
1442.123 142.511 2004.545 153.1015
1426.762 142.511 2004.369 154.0491
1411.303 142.511 2004.501 154.9781
1395.753 142.511 2004.633 155.8888
1380.112 142.511 2004.766 156.7816
1364.384 142.511 2004.899 157.657
1348.568 142.511 2005.034 158.5151
1332.668 142.511 2005.169 159.3563
1316.685 142.511 2005.305 160.1811
1300.62 142.511 2005.441 160.9896
1284.475 142.511 2005.578 161.7823
1268.252 142.511 2005.716 162.5594
1251.952 142.511 2005.855 163.3213
1235.577 142.511 2005.994 164.0681
1219.128 142.511 2006.134 164.8003
1202.606 142.511 2006.274 165.5182
1186.014 142.511 2006.415 166.2219
1169.352 142.511 2006.557 166.9118
1152.622 142.511 2006.699 167.5882
1135.825 142.511 2006.842 168.2513
1118.962 142.511 2006.985 168.9014
1102.035 142.511 2007.129 169.5387
1085.045 142.511 2007.273 170.1635
1067.994 142.511 2007.418 170.776
1050.882 142.511 2007.563 171.3765
1033.71 142.511 2007.709 171.9652
1016.48 142.511 2007.856 172.5423
999.1937 142.511 2008.003 173.1081
981.851 142.511 2008.15 173.6628
964.4535 142.511 2008.298 174.2066
947.0022 142.511 2008.446 174.7397
929.4982 142.511 2008.595 175.2624
911.9426 142.511 2008.744 175.7748
894.3363 142.511 2008.894 176.2771
876.6804 142.511 2009.044 176.7696
858.976 142.511 2009.194 177.2524
841.2236 142.511 2009.345 177.7257
823.4245 142.511 2009.496 178.1897
805.5795 142.511 2009.648 178.6446
787.6896 142.511 2009.8 179.0906
769.7556 142.511 2009.952 179.5278
751.7783 142.511 2010.105 179.9565
733.7587 142.511 2010.258 180.3767
715.6976 142.511 2010.412 180.7886
697.5957 142.511 2010.566 181.1925
679.4554 142.511 2010.538 181.5884
661.3548 142.511 2008.877 181.9766
643.248 142.511 2006.849 182.3572
625.0717 142.511 2005.182 182.7302
606.7827 142.511 2005.338 183.096
588.4595 142.511 2005.86 183.4545
570.101 142.511 2006.383 183.8061
551.7076 142.511 2006.907 184.1507
533.2803 142.511 2007.433 184.4885
514.9122 142.511 2009.248 184.8197
496.728 142.511 2012.654 185.1445
478.5232 142.511 2016.127 185.4628
460.2765 142.511 2019.545 185.7749
441.782 142.511 2021.372 186.0808
423.1782 142.511 2022.275 186.3808
404.5448 142.511 2023.18 186.6748
385.8824 142.511 2024.085 186.9631
367.2025 142.511 2024.992 186.5813
348.7804 142.511 2025.886 182.9173
330.72 142.511 2026.763 179.3252
313.2453 142.511 2027.611 171.8497
296.5087 142.511 2028.423 164.5209
280.4957 142.511 2029.201 157.3361
264.9591 142.511 2029.903 154.2464
249.7335 142.511 2029.274 151.2174
234.9881 142.511 2026.874 148.2478
220.9178 142.511 2022.808 145.3366
207.7002 142.511 2017.2 142.4826
195.2609 142.511 2010.594 139.6846
183.5784 142.511 2003.249 136.9416
172.5187 142.511 1995.159 137.5529
161.4408 142.511 1986.885 138.8058
151.1583 142.511 1977.466 140.0341
141.9983 142.511 1966.792 141.2383
134.1158 142.511 1954.999 142.4188
127.6489 142.511 1942.243 143.5762
122.7164 142.511 1928.698 144.7108
118.9427 142.511 1914.66 145.8231
115.1875 142.511 1900.504 146.9136
111.4046 142.511 1886.243 147.9827
107.5946 142.511 1871.88 149.0308
103.7581 142.511 1857.417 150.0583
99.60556 142.511 1842.94 151.0657
94.55852 142.511 1828.64 152.0532
89.47898 142.511 1814.248 153.0213
84.3676 142.511 1799.766 153.9705
79.22499 142.511 1785.196 154.901
74.05178 142.511 1770.538 155.8132
68.84855 142.511 1755.796 156.7076
62.73741 142.511 1741.315 157.5843
56.30141 142.511 1726.875 158.4439
49.83081 142.511 1712.358 159.2865
43.3263 142.511 1697.765 160.1126
36.78854 142.511 1683.098 160.9225
30.26765 142.511 1668.336 161.7165
24.71846 142.511 1653.099 162.4949
19.2954 142.511 1637.734 163.258
13.84723 142.511 1622.298 164.0061
8.374445 142.511 1606.792 164.7395
2.877532 142.511 1591.217 165.4586
-2.643038 142.511 1575.576 166.1635
-8.186799 142.511 1559.869 166.8546
-14.27363 142.511 1544.298 167.5321
-21.10997 142.511 1528.961 168.1963
-27.97304 142.511 1513.564 168.8475
-34.86232 142.511 1498.107 169.4858
-41.77729 142.511 1482.594 170.1116
-48.71744 142.511 1467.023 170.7252
-55.68229 142.511 1451.397 171.3266
-62.67134 142.511 1435.717 171.9163
-69.68412 142.511 1419.984 172.4944
-76.72017 142.511 1404.198 173.0612
-84.29992 142.511 1388.613 173.6168
-92.9318 142.511 1373.512 174.1615
-101.5904 142.511 1358.365 174.6955
-109.76 142.511 1342.898 175.2191
-116.0914 142.511 1326.538 175.7323
-120.4314 142.511 1309.489 176.2355
-123.9262 142.511 1292.186 176.7288
-127.4306 142.511 1274.835 177.2124
-131.291 142.511 1257.516 177.6865
-136.4813 142.511 1240.495 178.1513
-141.7419 142.511 1223.446 178.607
-147.0158 142.511 1206.354 179.0537
-152.2994 142.511 1189.231 178.8271
-157.4433 142.511 1172.561 171.3613
-162.3696 142.511 1156.595 164.0422
-167.8304 142.511 1141.582 156.8667
-174.7286 142.511 1127.964 149.8322
-182.8214 142.511 1115.846 142.9358
-191.863 142.511 1105.302 136.1748
-201.6094 142.511 1096.367 129.5466
-211.823 142.511 1089.045 123.0486
-222.3953 142.511 1083.247 120.6519
-233.6732 142.511 1078.724 122.2367
-245.5625 142.511 1075.544 123.7904
-257.899 142.511 1073.788 125.3135
-270.5075 142.511 1073.518 126.8068
-283.2044 142.511 1074.774 128.2707
-295.8323 142.511 1077.447 129.7059
-308.546 142.511 1080.404 131.1129
-321.3951 142.511 1083.392 132.4922
-334.2632 142.511 1086.842 133.8445
-346.7646 142.511 1091.814 135.1703
-358.9129 142.511 1097.912 136.4699
-371.1559 142.511 1104.108 137.7441
-383.7077 142.511 1109.942 138.9933
-396.9558 142.511 1114.358 140.2179
-410.4655 142.511 1118.367 141.4184
-423.9403 142.511 1122.861 142.5954
-437.1997 142.511 1128.288 143.7493
-450.3052 142.511 1133.803 139.591
-462.2177 142.511 1140.281 132.8958
-472.7301 142.511 1147.754 126.332
-481.7928 142.511 1155.995 119.8971
-489.4016 142.511 1164.799 114.9174
-495.8674 142.511 1174.411 116.6149
-501.2124 142.511 1184.877 118.2789
-505.3227 142.511 1196.062 119.9103
-508.1016 142.511 1207.815 121.5097
-509.4713 142.511 1219.974 123.0777
-509.3743 142.511 1232.364 124.6148
-507.7756 142.511 1244.804 126.1218
-504.6626 142.511 1257.108 127.5992
-500.0468 142.511 1269.086 129.0476
-493.963 142.511 1280.553 130.4675
-486.6846 142.511 1291.477 131.8595
-479.2563 142.511 1302.467 133.2242
-472.9003 142.511 1313.879 127.9611
-468.2025 142.511 1325.366 121.4942
-465.0828 142.511 1336.717 115.1543
-463.3236 142.511 1347.759 110.2657
-461.9348 142.511 1358.569 108.1003
-461.637 142.511 1369.245 105.9775
-462.6045 142.511 1379.703 105.2232
-464.8454 142.511 1390.09 107.1109
-468.3745 142.511 1400.311 108.9617
-473.1817 142.511 1410.201 110.776
-479.2353 142.511 1419.594 112.5548
-486.4819 142.511 1428.331 114.2986
-494.8474 142.511 1436.256 116.0081
-504.237 142.511 1443.223 117.6841
-514.5369 142.511 1449.098 119.3272
-525.3744 142.511 1454.313 120.938
-536.3553 142.511 1459.597 122.5172
-547.4769 142.511 1464.949 124.0654
-558.7364 142.511 1470.367 125.5831
-570.1843 142.511 1475.735 127.0711
-581.9242 142.511 1480.816 128.5298
-593.7965 142.511 1485.955 129.9599
-605.8155 142.511 1491.11 131.3619
-618.2808 142.511 1495.498 132.7364
-630.9194 142.511 1499.806 134.0839
-643.684 142.511 1504.156 135.405
-656.5617 142.511 1508.546 136.0356
-669.1856 142.511 1512.848 130.7194
-681.2358 142.511 1516.824 124.1984
-692.9871 142.511 1519.44 117.8054
-704.3386 142.511 1520.568 111.5379
-715.1243 142.511 1520.342 105.3935
-725.2044 142.511 1518.912 99.36978
-734.9105 142.511 1516.312 101.3725
-744.4194 142.511 1512.495 103.3359
-753.8188 142.511 1507.937 105.2607
-763.3895 142.511 1503.297 107.1478
-773.128 142.511 1498.574 108.9977
-782.7722 142.511 1493.285 110.8114
-791.8593 142.511 1486.775 112.5894
-800.2583 142.511 1479.132 114.3326
-808.5261 142.511 1471.091 116.0414
-816.9149 142.511 1462.932 117.7168
-825.4224 142.511 1454.658 119.3592
-834.3181 142.511 1446.567 120.9694
-844.2232 142.511 1439.475 122.548
-854.8959 142.511 1433.621 120.795
-865.9709 142.511 1429.176 118.4229
-877.2721 142.511 1426.149 116.0974
-888.6268 142.511 1424.529 113.8176
-899.8687 142.511 1424.285 111.5825
-910.8391 142.511 1425.367 109.3913
-921.5502 142.511 1427.747 110.5436
-932.0828 142.511 1431.417 112.3269
-942.6569 142.511 1435.5 114.0752
-953.3922 142.511 1439.646 115.7892
-964.2856 142.511 1443.852 117.4694
-975.3339 142.511 1448.118 119.1167
-986.534 142.511 1452.443 120.7317
-997.883 142.511 1456.826 122.3149
-1009.378 142.511 1461.264 123.8671
-1021.016 142.511 1465.758 125.3887
-1032.795 142.511 1470.306 126.8805
-1044.711 142.511 1474.907 128.343
-1056.762 142.511 1479.561 129.7767
-1068.729 142.511 1484.182 127.2282
-1080.462 142.511 1488.712 124.7298
-1091.861 142.511 1493.114 119.6357
-1102.677 142.511 1497.291 113.3323
-1112.773 142.511 1501.575 107.1527
-1121.826 142.511 1506.737 103.7479
-1130.241 142.511 1512.985 105.6646
-1137.985 142.511 1520.326 107.5438
-1144.913 142.511 1528.683 109.386
-1150.889 142.511 1537.963 111.192
-1155.79 142.511 1548.053 112.9626
-1159.865 142.511 1558.697 114.6984
-1163.965 142.511 1569.515 116.4001
-1167.568 142.511 1580.679 118.0684
-1169.84 142.511 1592.356 119.7039
-1171.111 142.511 1604.352 121.3073
-1172.359 142.511 1616.511 122.8792
-1173.624 142.511 1628.825 124.4203
-1174.652 142.511 1641.309 125.9311
-1174.554 142.511 1653.987 127.4122
-1174.327 142.511 1666.812 128.8643
-1174.104 142.511 1679.449 123.6868
-1173.891 142.511 1691.442 117.3038
-1173.727 142.511 1702.805 111.0462
-1174.497 142.511 1713.517 104.9115
-1176.433 142.511 1723.486 100.2261
-1179.549 142.511 1733.128 102.212
-1183.878 142.511 1742.506 104.159
-1189.221 142.511 1751.576 106.0676
-1194.843 142.509 1760.697 107.9388
-1201.457 142.509 1769.354 109.7733
-1209.187 142.509 1777.287 111.5717
-1217.862 142.509 1784.282 110.6901
-1227.135 142.511 1790.079 108.5164
-1236.992 142.511 1794.699 109.6859
-1247.503 142.511 1798.163 111.4861
-1258.528 142.511 1800.379 113.2509
-1269.912 142.511 1801.272 114.981
-1281.493 142.511 1800.79 116.6771
-1293.065 142.511 1798.904 117.0133
-1304.171 142.511 1795.695 114.7154
-1314.603 142.509 1791.268 112.4627
-1324.38 142.509 1785.649 113.5547
-1333.552 142.509 1778.796 115.2789
-1341.962 142.509 1770.777 116.9692
-1349.457 142.509 1761.68 118.6263
-1355.897 142.509 1751.614 120.2509
-1361.193 142.511 1740.72 121.8436
-1366.561 142.511 1729.686 123.405
-1373.258 142.511 1719.223 124.9357
-1381.256 142.511 1709.521 126.4364
-1390.466 142.511 1700.743 127.9076
-1400.776 142.511 1693.044 129.3499
-1412.057 142.511 1686.564 130.7639
-1424.062 142.511 1681.182 132.1501
-1436.247 142.511 1675.864 133.5091
-1448.606 142.511 1670.617 134.8414
-1461.511 142.511 1666.463 136.1476
-1474.491 140.3064 1662.482 137.428
-1487.457 136.3992 1658.416 138.6834
-1500.54 132.4569 1654.314 139.9141
-1513.646 128.4774 1649.911 141.1207
-1526.676 124.4603 1644.938 142.3035
-1539.813 120.41 1639.925 143.4631
-1553.056 116.3495 1634.872 144.6
-1566.402 112.2347 1629.779 145.7145
-1579.849 108.0888 1624.647 146.8071
-1593.395 103.9121 1619.478 147.8783
-1607.039 99.70546 1614.271 148.9284
-1620.778 95.46928 1609.028 149.9579
-1634.61 91.24547 1603.75 150.9672
-1648.535 86.95215 1598.436 151.9567
-1662.549 82.63106 1593.088 152.9268
-1676.651 78.28283 1587.706 153.8778
-1690.839 73.90791 1582.292 154.8101
-1705.164 71.047 1576.862 155.7242
-1719.834 71.047 1571.482 156.6202
-1734.586 71.047 1566.071 157.4987
-1749.421 71.047 1560.631 158.3599
-1764.335 71.047 1555.162 159.2042
-1779.327 71.047 1549.663 160.032
-1794.397 71.047 1544.137 160.8434
-1809.696 71.047 1539.042 161.639
-1825.222 71.047 1534.383 162.4189
-1840.822 71.047 1529.703 163.1835
-1856.494 71.047 1525 163.9331
-1872.236 71.047 1520.277 164.668
-1888.049 71.047 1515.532 165.3884
-1903.929 71.047 1510.767 166.0947
-1919.877 71.047 1505.982 166.7871
-1935.89 71.047 1501.178 167.4659
-1951.697 71.047 1495.559 168.1314
-1967.273 71.047 1489.129 168.7839
-1982.909 71.047 1482.674 169.4235
-1998.604 71.047 1476.195 170.0506
-2014.355 71.047 1469.693 170.6653
-2029.959 71.047 1463.251 165.9784
-2044.911 71.047 1457.079 158.765
-2059.204 71.047 1451.179 151.6931
-2072.547 71.047 1444.88 144.7602
-2084.461 71.047 1437.394 137.9634
-2095.038 71.047 1428.814 136.5896
-2104.585 71.047 1418.953 137.8614
-2112.959 71.047 1407.92 139.1083
-2120.013 71.047 1395.857 140.3306
-2125.622 71.047 1382.926 141.529
-2129.675 71.047 1369.303 142.7038
-2132.088 71.047 1355.178 143.8556
-2132.799 71.047 1340.752 144.9847
-2132.498 71.047 1326.192 146.0917
-2132.194 71.047 1311.523 147.1769
-2131.888 71.047 1296.746 148.2408
-2132.572 71.047 1281.883 149.2838
-2133.76 71.047 1266.942 150.3064
-2134.955 71.047 1251.9 151.3088
-2136.158 71.047 1236.76 152.2916
-2137.369 71.047 1221.522 153.2551
-2138.587 71.047 1206.19 154.1996
-2139.813 71.047 1190.764 155.1256
-2140.527 71.047 1175.222 156.0335
-2140.203 71.047 1159.57 156.9235
-2139.877 71.047 1143.829 157.796
-2139.549 71.047 1128.003 158.6514
-2139.22 71.047 1112.092 159.4899
-2138.889 71.047 1096.099 160.312
-2138.556 71.047 1080.024 161.118
-2138.221 71.047 1063.869 161.9082
-2137.885 71.047 1047.637 162.6828
-2137.55 71.047 1031.438 160.7975
-2137.273 71.047 1015.546 157.6398
-2138.297 71.047 1000.003 154.5442
-2139.811 71.047 984.8015 151.5094
-2141.279 71.047 970.0629 145.2336
-2142.679 71.047 956.0071 138.4276
-2143.969 71.047 942.6171 131.7551
-2144.136 71.047 929.831 125.2137
-2143.885 71.047 917.6873 118.8008
-2143.647 71.047 906.1774 112.5137
-2143.421 71.047 895.2778 107.0147
-2142.677 71.047 884.7315 104.9132
-2140.714 71.047 874.5542 102.853
-2137.61 71.047 864.8789 100.8332
-2133.452 71.047 855.8262 98.8531
-2128.283 71.047 847.4108 99.55663
-2122.025 71.047 839.5258 101.5557
-2114.727 71.047 832.3079 103.5155
-2106.465 71.047 825.8967 105.4368
-2097.332 71.047 820.4232 107.3204
-2087.439 71.047 816.0063 109.167
-2076.915 71.047 812.7516 110.9773
-2065.901 71.047 810.748 112.7521
-2054.562 71.047 809.8384 114.492
-2043.041 71.047 809.0296 116.1978
-2031.352 71.047 808.2089 117.87
-2019.478 71.047 807.8525 119.5095
-2007.434 71.047 807.731 121.1167
-1995.23 71.047 807.6078 122.6924
-1982.871 71.047 807.483 124.2371
-1970.359 71.047 807.3567 125.7515
-1957.698 71.047 807.2289 127.2361
-1944.89 71.047 807.0996 128.6916
-1931.938 71.047 806.9689 130.1185
-1918.845 71.047 806.8367 131.5174
-1905.614 71.047 806.7032 132.8888
-1892.247 71.047 806.5682 134.2333
-1878.751 71.047 806.9271 135.5514
-1865.127 71.047 807.3347 136.8436
-1851.375 71.047 807.7462 138.1105
-1837.497 71.047 808.1613 139.3524
-1823.497 71.047 808.5801 140.57
-1809.376 71.047 809.0026 141.7637
-1795.138 71.047 809.4285 142.9339
-1780.784 71.047 809.8579 144.0811
-1766.316 71.047 810.2908 145.2059
-1751.738 71.047 810.7269 146.3085
-1737.05 71.047 811.1663 147.3894
-1722.256 71.047 811.6089 148.4492
-1707.357 71.047 812.0546 149.4881
-1692.355 71.047 812.5034 150.5066
-1677.253 71.047 812.9552 151.5052
-1662.052 71.047 813.4099 152.4841
-1646.754 71.047 813.8676 153.4438
-1631.361 71.047 814.328 154.3846
-1615.892 71.047 815.1011 155.307
-1600.403 71.047 816.8104 156.2113
-1584.824 71.047 818.5295 157.0978
-1569.159 71.047 820.2582 157.9669
-1553.408 71.047 821.9964 158.8189
-1537.558 71.047 823.5848 159.6542
-1521.565 71.047 824.3837 160.4731
-1505.485 71.047 825.0254 161.2759
-1489.336 71.047 824.2153 162.0629
-1473.136 71.047 823.0779 162.1701
-1457.13 71.047 822.2734 158.9855
-1441.42 71.047 822.6906 155.8634
-1426.085 71.047 823.1493 150.8159
-1411.415 71.047 823.5882 143.9001
-1397.427 71.047 823.9609 137.1202
-1384.135 71.047 823.1678 130.4735
-1371.576 71.047 821.5247 123.9572
-1359.656 71.047 819.9651 117.569
-1348.252 71.047 818.4731 113.9509
-1337.088 71.047 816.975 111.7132
-1326.317 71.047 814.5676 109.5195
-1316.116 71.047 810.9603 107.3688
-1306.611 71.047 806.2521 105.2603
-1297.912 71.047 800.5541 103.1933
-1290.114 71.047 793.9872 101.1669
-1283.294 71.047 786.6803 99.18021
-1277.496 71.047 778.7405 98.55931
-1272.626 71.047 770.0432 100.5779
-1268.44 71.047 760.7708 102.5569
-1264.205 71.047 751.3058 104.4971
-1259.892 71.047 741.6656 106.3991
-1255.502 71.047 731.8539 108.2638
-1251.037 71.047 721.874 110.0919
-1246.498 71.047 712.2411 103.9759
-1241.249 71.047 703.6815 97.97997
-1235.381 71.047 696.2761 92.10181
-1228.919 71.047 689.8845 91.62862
-1221.585 71.047 684.1935 93.78336
-1213.439 71.047 679.3121 95.89579
-1204.577 71.047 675.3558 97.96674
-1195.109 71.047 672.4284 99.99701
-1185.162 71.047 670.6193 101.9874
-1174.874 71.047 670.0023 103.9387
-1164.369 71.047 670.1063 105.8517
-1153.674 71.047 670.2123 107.7272
-1142.794 71.047 670.3201 109.5658
-1131.733 71.047 670.4296 111.3683
-1120.493 71.047 670.541 113.1354
-1109.079 71.047 670.6541 114.8678
-1097.494 71.047 670.7689 116.5662
-1085.74 71.047 670.8853 118.2312
-1073.822 71.047 671.0034 119.8635
-1061.742 71.047 671.1231 121.4638
-1049.505 71.047 671.2443 123.0327
-1037.112 71.047 671.3671 124.5707
-1024.567 71.047 671.4914 126.0786
-1011.876 71.047 671.3203 127.5568
-999.0416 71.047 670.9339 129.006
-986.0637 71.047 670.5432 130.4267
-972.9456 71.047 670.1483 131.8196
-959.6897 71.047 669.7493 133.1851
-946.299 71.047 669.3462 134.5237
-932.7759 71.047 668.9391 135.8362
-919.1232 71.047 668.5281 137.1228
-905.3433 71.047 668.1133 138.3841
-891.437 71.047 667.8344 139.6207
-877.4102 71.047 668.254 140.833
-863.2637 71.047 668.6772 142.0215
-848.9996 71.047 669.1039 143.1866
-834.731 71.047 669.5308 141.6842
-820.7427 71.047 669.9492 138.2374
-807.315 71.047 670.3508 131.5687
-794.5447 71.047 670.6074 125.0309
-782.462 71.047 669.6438 118.6216
-771.202 71.047 667.3664 112.3381
-760.885 71.047 663.9526 106.178
-751.6015 71.047 659.5875 100.1388
-743.321 71.047 654.3979 96.86305
-735.8796 71.047 648.3814 94.96091
-729.3427 71.047 641.6522 93.09612
-723.7638 71.047 634.3261 91.93243
-719.0517 71.047 626.2926 94.0812
-715.2504 71.047 617.5582 96.18777
-712.4623 71.047 608.2321 98.25298
-710.776 71.047 598.4383 100.2776
-710.0602 71.047 588.3209 102.2625
-709.4329 71.047 577.9998 104.2085
-709.4972 71.047 567.4722 106.1162
-709.9183 71.047 556.7595 107.9864
-710.3468 71.047 545.862 109.8199
-710.7823 71.047 534.7834 111.6174
-711.2249 71.047 523.5273 113.3796
-711.6744 71.047 512.097 115.1072
-712.1305 71.047 500.4961 116.8009
-712.5932 71.047 488.7279 118.4613
-713.0623 71.047 476.7958 120.0891
-713.5378 71.047 464.7029 121.685
-714.0194 71.047 452.4522 123.2495
-714.5071 71.047 440.0471 124.7833
-715.0008 71.047 427.4905 126.287
-715.5003 71.047 414.7854 127.7611
-716.0056 71.047 401.9347 129.2063
-716.5164 71.047 388.9412 130.6231
-717.0328 71.047 375.8077 132.0121
-717.5546 71.047 362.5371 133.3738
-718.0816 71.047 349.132 134.7088
-718.6138 71.047 335.595 136.0175
-719.1511 71.047 321.9287 137.3006
-719.689 71.047 308.246 135.9137
-720.2164 71.047 294.8322 132.5802
-720.7222 71.047 281.9676 126.0226
-721.2025 71.047 269.7508 119.5938
-721.6578 71.047 258.169 113.2912
-722.0887 71.047 247.2098 107.1124
-722.4955 71.047 236.8608 101.0549
-722.5587 71.047 227.1072 95.11635
-721.5516 71.047 217.9969 89.29443
-719.5927 71.047 209.6327 83.58684
-717.3677 71.047 201.9156 77.99133
-715.296 71.047 194.7301 72.5057
-712.9714 71.047 187.9546 71.08188
-709.9136 71.047 181.6329 69.68601
-706.1957 71.047 175.8386 68.31757
-701.8967 71.047 170.6354 66.97599
-697.1019 71.047 166.0755 65.66075
-691.8999 71.047 162.2001 64.37134
-686.3819 71.047 159.0387 63.10725
-680.6401 71.047 156.6092 61.86799
-674.7665 71.047 154.9184 60.65307
-668.8511 71.047 153.962 59.46201
-662.9814 71.047 153.7254 58.29433
-657.2405 71.047 154.184 57.14959
-651.7066 71.047 155.3041 56.02732
-646.3483 71.047 157.0817 57.57183
-640.994 71.047 159.6048 60.39534
-635.744 71.047 162.8988 63.16339
-630.7134 71.047 166.9696 65.8771
-626.0195 71.047 171.8055 68.53753
-621.779 71.047 177.3777 71.14572
-618.1055 71.047 183.6397 73.70269
-614.9672 71.047 190.4692 76.20944
-611.795 71.047 197.5563 78.66698
-608.5235 71.047 204.8652 81.07625
-605.1547 71.047 212.3914 83.4382
-601.6906 71.047 220.1307 85.75377
-598.1329 71.047 228.079 88.02387
-594.4835 71.047 236.2321 90.24939
-590.6052 71.047 244.5207 92.43121
-586.4389 71.047 252.9115 94.57019
-582.1786 71.047 261.4918 96.66716
-577.826 71.047 270.2577 98.72295
-573.3831 71.047 279.2056 100.7384
-568.8516 71.047 288.3319 102.7142
-564.2332 71.047 297.6331 104.6513
-559.5297 71.047 307.1059 106.5503
-554.7427 71.047 316.7469 108.412
-549.8738 71.047 326.5526 110.2371
-544.9247 71.047 336.5199 112.0265
-539.897 71.047 346.6456 113.7806
-534.7921 71.047 356.9267 115.5004
-529.4046 71.047 367.2511 117.1863
-523.1531 71.047 377.2768 118.8392
-516.7814 71.047 387.4203 120.4596
-510.6744 71.047 397.9048 122.0481
-504.987 71.047 408.8064 123.6055
-499.2283 71.047 419.8444 125.1323
-493.3998 71.047 431.0162 126.6291
-487.5029 71.047 442.3192 128.0965
-481.7686 71.047 453.8677 129.5351
-475.9712 71.047 465.5437 130.9455
-470.1117 71.047 477.3445 132.3281
-464.1915 71.047 489.2677 133.6836
-458.2117 71.047 501.3109 135.0125
-452.2965 71.047 513.5304 136.3153
-446.6968 71.047 526.0406 137.5925
-441.0455 71.047 538.666 138.8446
-435.4381 71.047 551.1933 136.1181
-429.9409 71.047 563.4746 133.4451
-424.6191 71.047 575.3638 127.524
-419.5634 71.047 586.6586 121.0657
-414.7685 71.047 597.3707 114.7342
-410.2293 71.047 607.5115 108.5271
-405.9409 71.047 617.0922 102.4418
-401.3513 71.047 626.1123 100.4301
-395.8058 71.047 634.3798 99.78467
-389.2212 71.047 642.024 101.7793
-381.6232 71.047 648.9581 103.7346
-373.0926 71.047 655.0447 105.6517
-363.7284 71.047 660.1574 107.531
-353.6471 71.047 664.181 109.3735
-342.9808 71.047 667.0156 111.1797
-331.8751 71.047 668.5778 112.9506
-320.5244 71.047 669.6011 114.6866
-309.0029 71.047 670.6399 116.3885
-297.3013 71.047 671.5373 118.057
-285.429 71.047 672.3686 119.6928
-273.3953 70.969 673.2112 121.2964
-261.2035 70.969 674.065 122.8686
-248.8567 70.969 674.9294 124.4098
-236.5229 70.969 675.7931 122.6203
-224.4313 70.969 676.6397 120.2124
-212.5709 70.969 677.3519 117.8517
-200.9216 70.969 677.4675 115.5374
-190.035 66.62847 677.5803 113.2686
-179.6263 62.42426 677.6907 111.0443
-169.422 58.30261 677.7989 108.8637
-159.4182 54.26189 677.9049 106.7259
-149.6167 50.30441 678.2186 104.6301
-140.0233 46.43386 678.9406 102.5754
-130.6183 42.63934 679.6484 100.5611
-121.3934 38.91675 680.2438 98.58636
-112.3683 35.14462 680.5348 96.65038
-103.5515 31.40458 680.82 94.75243
-94.91521 27.7365 680.477 92.89173
-86.46067 24.14335 679.8335 91.06758
-78.17216 20.62076 679.2026 89.27926
-70.04642 17.16734 678.5842 87.52605
-62.08026 13.78174 677.9779 85.80727
-54.29713 10.47185 677.1036 84.12224
-46.81393 7.282289 675.2904 82.4703
-39.72865 4.254928 672.5739 80.85079
-32.76143 5 669.0284 79.26308
-26.21091 5 664.7377 77.70657
-20.33067 5 659.7852 76.84509
-14.99593 5 654.0633 79.29014
-10.24204 5 647.5488 81.68717
-6.186401 5 640.3056 84.03713
-2.938571 5 632.4144 86.34095
-0.5978729 5 623.9717 88.59953
0.7488484 5 615.0889 90.81375
1.33781 5 605.8997 92.98448
1.909473 5 596.4941 95.11259
2.493899 5 586.8785 97.19891
2.991807 5 577.0526 99.24427
2.696975 5 567.0164 101.2495
2.294694 5 556.7844 103.2153
1.88478 5 546.3582 105.1425
1.680974 5 535.7381 107.0318
2.12093 5 524.9354 108.8841
2.568337 5 513.95 110.7
3.023049 5 502.7851 112.4802
2.803034 5 491.4401 114.2255
2.350362 5 479.9263 115.9365
1.891045 5 468.2436 117.6139
1.425215 5 456.3951 119.2583
0.9529984 5 444.3842 120.8705
0.474521 5 432.2141 122.451
-0.01009411 5 419.8878 124.0005
-0.5007265 5 407.4085 125.5195
-0.9972578 5 394.7792 127.0087
-1.499573 5 382.0028 128.4687
-2.007557 5 369.0822 129.9
-2.5211 5 356.0202 131.3032
-3.040092 5 342.8196 132.6788
-3.564426 5 329.4831 134.0275
-4.093997 5 316.0133 135.3496
-4.628703 5 302.4131 136.6458
-4.75549 5 288.6791 137.9165
-4.468453 5 274.8175 139.1623
-4.178867 5 260.8328 140.3836
-3.886781 5 246.7274 141.5809
-3.592245 5 232.5036 142.7547
-3.295306 5 218.1639 143.9055
-2.996012 5 203.7104 145.0336
-2.69441 5 189.1454 146.1396
-2.390544 5 174.4711 147.224
-2.084459 5 159.6897 148.2869
-1.776198 5 144.8032 149.3291
-1.465805 5 129.8137 150.3507
-1.153321 5 114.7233 151.3523
-0.8387868 5 99.53384 152.3342
-0.5222434 5 84.24735 153.2969
-0.20373 5 68.86572 154.2406
0.1167148 5 53.39083 155.1658
0.4390531 5 37.8245 156.0728
0.7632475 5 22.16852 156.9621
1.089262 5 6.424667 157.8338
